# Do not change tags in here without changing every other reference to them.
# If adding new resources, make sure they are uniquely named.
# Please add price definitions to prices.txt as well.

#Base resources
grain = {
	color = { 0.96 0.93 0.58 }
	modifier = {
		land_forcelimit_modifier = 0.20
	}
	province = {
		land_forcelimit = 0.5
	}
	chance = {
		factor = 35
		modifier = {
			factor = 0
			OR = {
				has_terrain = desert
				has_terrain = glacier
				has_terrain = coastline
				has_terrain = cavern
				has_terrain = dwarven_hold
				has_terrain = dwarven_hold_surface
				has_terrain = dwarven_road
                has_terrain = city_terrain
				has_climate = arctic
			}
		}
		modifier = {
			factor = 0.15
			OR = {
				has_terrain = mountain
				has_terrain = coastal_desert
				has_terrain = forest
				has_terrain = woods
				has_terrain = hills
				has_terrain = jungle
			}
		}
		modifier = {
			factor = 0.25
			OR = {
				has_terrain = highlands
				has_terrain = marsh
			}
		}
		modifier = {
			factor = 0.25
			OR = {
				has_climate = arid
				has_climate = tropical
				
			}
		}
		modifier = {
			factor = 0.6
			OR = {
				has_terrain = drylands
				has_terrain = savannah
				has_terrain = steppe
			}
		}
		modifier = {
			factor = 0.35
			has_winter = severe_winter
		}
		modifier = {
			factor = 0.5
			has_winter = normal_winter
		}
		modifier = {
			factor = 1.5
			has_terrain = farmlands
		}
	}
}

wine = {
	color = { 0.36 0.13 0.28 }
	modifier = {
		global_unrest = -1
	}
	province = {
		local_unrest = -1
	}
	chance = {
		factor = 5
		modifier = {
			factor = 0
			OR = {
				has_winter = severe_winter
				has_climate = arctic
				has_climate = arid
				has_climate = tropical
				has_terrain = jungle
				has_terrain = drylands
				has_terrain = steppe
				has_terrain = desert
				has_terrain = coastal_desert
				has_terrain = marsh
				has_terrain = savannah
				has_terrain = glacier
				religion_group = muslim
			}
		}
		modifier = {
			factor = 0.25
			has_winter = normal_winter
		}
		modifier = {
			factor = 1.25
			has_terrain = farmlands
		}
		modifier = {
			factor = 1.25
			OR = {
				has_terrain = hills
				has_terrain = highlands
			}
		}
	}
}

wool = {
	color = { 0.83 0.83 0.83  }
	modifier = {
		global_ship_cost = -0.05
	}
	province = {
		local_friendly_movement_speed = 0.10
	}
	chance = {
		factor = 30
		modifier = {
			factor = 0
			OR = {
				has_terrain = glacier
				has_terrain = marsh
				has_terrain = jungle
				has_terrain = farmlands
				has_terrain = coastline
				has_terrain = hills
				has_terrain = forest
				has_terrain = woods
				has_terrain = dwarven_hold
				has_terrain = dwarven_hold_surface
                has_terrain = city_terrain   
			}
		}
		modifier = {
			factor = 0.15
			OR = {
				has_terrain = grasslands
				has_terrain = hills
				has_terrain = forest
				has_terrain = woods
			}
		}
		modifier = {
			factor = 0.4
			OR = {
				has_terrain = dwarven_road
				has_terrain = cavern
			}
		}
		modifier = {
			factor = 1.25
			OR = {
				has_terrain = desert
				has_terrain = savannah
				has_terrain = highlands
				has_terrain = drylands
				has_climate = arid
			}
		}
	}
}

cloth = {
	color = { 0.86 0.19 0.19 }
	modifier = {
		merc_maintenance_modifier = -0.15
	}
	province = {
		local_development_cost = -0.1
	}
	chance = {
		factor = 10
		modifier = {
			factor = 0
			OR = {
				has_terrain = cavern
				has_terrain = dwarven_road
				AND = {
                    NOT = { development = 18 }
                    NOT = { has_terrain = city_terrain}
                    }
			}
		}
		modifier = {
			factor = 2.0
			development = 22
		}
		modifier = {
			factor = 2
			has_terrain = city_terrain
		}
	}
}

fish = {
	color = { 0.55 0.82 0.97 }
	modifier = {
		global_sailors_modifier = 0.25
	}
	province = {
		local_sailors_modifier = 0.25
	}
	chance = {
		factor = 20
		modifier = {
			factor = 0
			NOT = { has_port = yes }
		}
		modifier = {
			factor = 1.1
			OR = {
				has_terrain = coastline
				has_terrain = coastal_desert
			}
		}
		modifier = {
			factor = 1.2
			has_terrain = glacier
		}
	}
}

fur = {
	color = { 0.54 0.40 0.31 }
	modifier = {
		prestige = 0.5
	}
	province = {
		province_trade_power_modifier = 0.10
	}
	
	chance = {
		factor = 15
		modifier = {
			factor = 0
			OR = {
				has_climate = tropical
				has_climate = arid
				has_terrain = drylands
				has_terrain = steppe
				has_terrain = desert
				has_terrain = coastal_desert
				has_terrain = coastline
				has_terrain = cavern
				has_terrain = dwarven_hold
				has_terrain = dwarven_hold_surface
				has_terrain = dwarven_road
			}
			NOT = { has_winter = normal_winter }
			NOT = { has_winter = severe_winter }
		}
		modifier = {
			factor = 0
			OR = {
				has_terrain = farmlands
				has_terrain = mountain
				continent = south_america
			}
		}
		modifier = {
			factor = 0.75
			OR = {
				has_terrain = savannah
				has_terrain = grasslands
				has_terrain = highlands
			}
			has_winter = mild_winter
		}
		modifier = {
			factor = 0.5
            OR = {   
                NOT = { native_size = 1 }
                has_terrain = city_terrain 
                }
		}
		modifier = {
			factor = 2.0
			native_size = 1
		}
		modifier = {
			factor = 1.5
			has_terrain = forest
		}
		modifier = {
			factor = 1.6
			has_winter = normal_winter
		}
		modifier = {
			factor = 2.5
			has_winter = severe_winter
			NOT = { has_terrain = glacier }
		}
		modifier = {
			factor = 1.1
			superregion = gerudia_superregion
		}
		
		modifier = {
			factor = 0.25
			OR = {
				superregion = escann_superregion
			}
		}
	}
}

salt = {
	color = { 0.999 0.999 0.999 }
	modifier = {
		land_maintenance_modifier = -0.05
	}
	province = {
		local_defensiveness = 0.15
	}
	chance = {
		factor = 5

		modifier = {
			factor = 0
			NOT = { has_terrain = desert }
			NOT = { has_terrain = marsh }
			NOT = { has_terrain = mountain }
			NOT = { has_terrain = highlands }
			NOT = { has_terrain = cavern }
			NOT = { has_terrain = dwarven_hold }
			NOT = { has_terrain = dwarven_road }
		}
		modifier = {
			factor = 2
			OR = {
				has_terrain = desert
				AND = {
					has_terrain = marsh
					NOT = { has_climate = arctic } #Hudson Bay
				}
			}
		}
		modifier = {
			factor = 0.5
			superregion = gerudia_superregion
		}
	}
}

naval_supplies = {
	color = { 0.11 0.17 0.4 }
	modifier = {
		naval_forcelimit_modifier = 0.20
	}
	province = {
		naval_forcelimit = 0.5
	}

	chance = {
		factor = 15
		modifier = {
			factor = 0
			OR = {
				has_terrain = glacier
				has_terrain = desert
				has_terrain = coastal_desert
				has_terrain = drylands
				has_terrain = savannah
				has_terrain = marsh
				has_terrain = steppe
				has_terrain = highlands
				has_terrain = farmlands
				has_terrain = cavern
				has_terrain = dwarven_hold
				has_terrain = dwarven_hold_surface
				has_terrain = dwarven_road
				superregion = northern_expanse_superregion
			}
		}
		modifier = {
			factor = 0.5
			OR = {
				has_terrain = mountain
				has_terrain = grasslands
			}
		}
		modifier = {
			factor = 0.5
			FROM = {
				NOT = { num_of_ports = 1 }
			}
		}
		modifier = {
			factor = 0.75
			OR = {
				has_terrain = coastline
				has_climate = tropical
			}
		}
		modifier = {
			factor = 1.5
			OR = {
				has_terrain = forest
				has_terrain = woods
				has_terrain = hills
				has_terrain = jungle
			}
		}
	}
}


# metals
copper = {
	color = { 0.85 0.46 0.15 }
	modifier = {
		global_regiment_recruit_speed = -0.2
	}
	province = {
		regiment_recruit_speed = -0.2
	}
	chance = {
		factor = 15

		modifier = {
			factor = 0
			OR = {
				has_terrain = steppe
				has_terrain = desert
				has_terrain = coastal_desert
				has_terrain = drylands
				has_terrain = grasslands
				has_terrain = savannah
				has_terrain = coastline
				has_terrain = glacier
				has_terrain = jungle
				has_terrain = farmlands
				has_terrain = woods
			}
		}
		modifier = {
			factor = 0
			is_random_new_world = yes
			NOT = { continent = new_world }
		}
		modifier = {
			factor = 1.1
			is_random_new_world = yes
			OR = {
				has_terrain = mountain
				has_terrain = highlands
				has_terrain = cavern
			}
		}
		modifier = {
			factor = 1.1
			superregion = gerudia_superregion
		}
		modifier = {
			factor = 1000
			
			province_id = 526
		}
	}
}

gold = {
	color = { 1.0 0.84 0.19 }
	#no modifiers
	
	chance = {
		factor = 5
		modifier = {
			factor = 0
			is_random_new_world = yes
			NOT = { continent = new_world }
		}
		modifier = {
			factor = 0
			continent = europe
			OR = {
				has_terrain = forest
				has_terrain = woods
				has_terrain = drylands
				has_terrain = grasslands
				has_terrain = savannah
				has_terrain = steppe
				has_terrain = jungle
				has_terrain = coastline
				has_terrain = coastal_desert
				has_terrain = marsh
				has_terrain = city_terrain
			}
		}
		modifier = {
			factor = 0.3
			OR = {
				has_terrain = dwarven_hold
				has_terrain = dwarven_hold_surface
			}
		}
		modifier = {
			factor = 1.5
			has_terrain = mountain
			OR = {
				continent = north_america
				continent = south_america
			}
		}
		modifier = {
			factor = 1.1
			superregion = gerudia_superregion
		}
		modifier = {
			factor = 1.5
			normal_or_historical_nations = no
		}
		modifier = {
			factor = 10
			has_terrain = mountain
			OR = { 
				region = amadia_region
				region = dalaire_region
			}
		}
		modifier = {
			factor = 1.5
			
			OR = {
				area = areatb56_area
				area = areatb57_area
				area = areatb58_area
				area = areatb59_area
				area = areatb74_area
				area = areatb76_area
			}
		}
		modifier = {
			factor = 0.6
			
			superregion = escann_superregion
		}
		modifier = {
			factor = 0
			
			continent = serpentspine
			FROM = { NOT = { num_of_cities = 2 } }
			ai = yes
		}
	}
}

iron = {
	color = { 0.2 0.2 0.2 }
	modifier = {
		global_regiment_cost = -0.05
	}
	province = {
		local_build_time = -0.2
	}
	chance = {
		factor = 10
		modifier = {
			factor = 1.2
			normal_or_historical_nations = no
			OR = {
				has_terrain = mountain
				has_terrain = hills
				has_terrain = highlands
				has_terrain = cavern
				has_terrain = dwarven_hold
				has_terrain = dwarven_hold_surface
				has_terrain = dwarven_road
			}
		}
		modifier = {
			factor = 1.5
			is_random_new_world = yes
			has_terrain = mountain
			continent = new_world #Always in RNW
		}
	}
}


#African Resources
slaves = {
	color = { 0.0 0.0 0.0 }
	modifier = {
		global_tariffs = 0.25
	}
	province = {
		local_missionary_strength = 0.01
	}
	chance = {
		factor = 7

		modifier = {
			factor = 0
			FROM = { has_country_modifier = the_abolish_slavery_act }
		}
		modifier = {
			factor = 0
			FROM = { 
				NOT = { has_country_modifier = gnollish_administration } 
			}
		}
		# modifier = {
			# factor = 0
			# NOT = { superregion = escann_superregion }
		# }
		modifier = {
			factor = 0
			superregion = escann_superregion
			has_global_flag = orcish_slave_trade_banned_in_cannor
		}
	}
}

ivory = {
	color = { 0.75 0.7 0.63 }
	modifier = {
		diplomatic_reputation = 2
	}
	province = {
		local_state_maintenance_modifier = -0.2
	}

	chance = {
		factor = 15

		modifier = {
			factor = 0
			NOT = { continent = asia }
			NOT = { continent = africa }
		}
		modifier = {
			factor = 0
			NOT = { has_terrain = jungle }
			NOT = { has_terrain = savannah }
			NOT = { has_terrain = glacier }
		}

		modifier = {
			factor = 1.25
			OR = {
				has_terrain = jungle
				has_terrain = savannah
			}
		}
		modifier = {
			factor = 0.25
			superregion = gerudia_superregion
		}
	}
}


#Eastern Resources
tea = {
	color = { 0.07 0.33 0.09 }
	modifier = {
		advisor_cost = -0.10
	}
	province = {
		garrison_growth = 0.25
	}
	chance = {
		factor = 15
		modifier = {
			factor = 0
			OR = {
				has_terrain = mountain
				has_terrain = desert
				has_terrain = drylands
				has_terrain = steppe
				has_terrain = savannah
				has_climate = arid
				has_winter = mild_winter
				has_winter = normal_winter
				has_winter = severe_winter
			}
		}
		modifier = {
			factor = 1.2
			has_terrain = farmlands
		}
		modifier = {
			factor = 0
			OR = {
				continent = serpentspine
				continent = europe
				superregion = gerudia_superregion
			}
		}
	}
}

chinaware = {
	color = { 0.18 0.57 0.8 }
	modifier = {
		legitimacy = 0.25
		devotion = 0.25
		horde_unity = 0.25
		republican_tradition = 0.12
		meritocracy = 0.1
	}
	province = {
		local_autonomy = -0.1

	}

	chance = {
		factor = 0


		modifier = {
			factor = 0
			NOT = { development = 8 }
		}
		
		modifier = {
			factor = 0
			OR = {
				continent = europe
				superregion = gerudia_superregion
			}
		}
	}
}

spices = {
	color = { 0.4 0.65 0.38 }
	modifier = {
		spy_offence = 0.25
	}
	province = {
		local_monthly_devastation = -0.1
	}
	chance = {
		factor = 25

		modifier = {
			factor = 0
			OR  = {
				has_terrain = mountain
				has_terrain = cavern
				has_terrain = dwarven_hold
				has_terrain = dwarven_hold_surface
				has_terrain = dwarven_road
			}
		}

		modifier = {
			factor = 0.5
			OR = {
				continent = north_america
				continent = south_america
			}
			NOT = {
				superregion = greater_taychend_superregion
			}
		}
		modifier = {
			factor = 0
			OR = {
				continent = serpentspine
				continent = europe
				superregion = gerudia_superregion
			}
		}
		modifier = {
			factor = 1.5
			OR = {
				superregion = greater_taychend_superregion
			}
		}

	}
}


#New World Resources
coffee = {
	color = { 0.22 0.15 0.09 }
	modifier = {
		global_institution_spread = 0.05
	}
	province = {
		local_institution_spread = 0.1
	}
	chance = {
		factor = 15

		modifier = {
			factor = 0
			OR = {
				superregion = northern_expanse_superregion
				superregion = west_serpentspine_superregion
				superregion = gerudia_superregion
				continent = europe
			}
		}
		modifier = {
			factor = 0
			OR = {
				has_terrain = glacier
				has_terrain = forest
				has_terrain = cavern
				has_terrain = dwarven_road
				has_terrain = dwarven_hold
				has_terrain = dwarven_hold_surface
				has_climate = arctic
                has_terrain = city_terrain
				has_winter = severe_winter
				has_winter = normal_winter
				has_winter = mild_winter
			}
		}

		modifier = {
			factor = 0
			is_random_new_world = yes
			continent = new_world #Always in RNW
			NOT = { has_climate = tropical }
		}
		
		modifier = {
			factor = 1.5
			OR = {
				continent = north_america
				continent = south_america
			}
		}
	}
}

cotton = {
	color = { 0.52 0.68 0.6 }
	modifier = {
		global_colonial_growth = 20
	}
	province = {
		local_development_cost = -0.1
	}
	chance = {
		factor = 20


		modifier = {
			factor = 0
			OR = {
				superregion = northern_expanse_superregion
				superregion = west_serpentspine_superregion
				superregion = gerudia_superregion
				continent = europe
			}
		}
		modifier = {
			factor = 0
			OR = {
				has_terrain = mountain
				has_terrain = highlands
				has_terrain = forest
				has_terrain = jungle
				has_terrain = cavern
				has_terrain = dwarven_hold
				has_terrain = dwarven_hold_surface
				has_terrain = dwarven_road
				has_climate = arctic
				has_climate = arid
				has_terrain = glacier
				has_winter = severe_winter
				has_winter = normal_winter
				has_winter = mild_winter
				has_terrain = desert

			}
		}
		modifier = {
			factor = 1.8
			OR = {
				has_terrain = farmlands
				has_terrain = grasslands
				continent = north_america
			}
		}
		modifier = {
			factor = 1.15
			OR = {
				continent = south_america
				continent = north_america
			}
		}
	}
}

sugar = {
	color = { 0.74 0.95 0.68 }
	modifier = {
		war_exhaustion_cost = -0.2
	}
	province = {
		local_unrest = -1
	}
	chance = {
		factor = 15
		modifier = {
			factor = 0
			OR = {
				superregion = northern_expanse_superregion
				superregion = gerudia_superregion
				continent = europe
			}
		}
		modifier = {
			factor = 0
			NOT = { has_climate = tropical }
			OR = {
				has_winter = severe_winter
				has_winter = normal_winter
				has_winter = mild_winter
				has_terrain = desert
				has_terrain = mountain
				has_terrain = hills
				has_terrain = highlands
				has_terrain = forest
				has_terrain = steppe
				has_terrain = cavern
				has_terrain = dwarven_hold
				has_terrain = dwarven_hold_surface
				has_terrain = dwarven_road
			}
		}
		
		modifier = {
			factor = 1.5
			OR = {
				continent = north_america
				continent = south_america
			}
		}


	}
}

tobacco = {
	color = { 0.33 0.56 0.38 }
	modifier = {
		global_spy_defence = 0.25
	}
	province = {
		 province_trade_power_modifier = 0.10
	}
	chance = {
		factor = 15

		modifier = {
			factor = 0
			is_random_new_world = yes
			NOT = { continent = new_world } #Always in RNW
		}
		modifier = {
			factor = 0
			OR = {
				AND = {
					has_climate = arid
					NOT = { has_terrain = grasslands }
					NOT = { has_terrain = farmlands }
				}
				has_winter = severe_winter
				has_terrain = glacier
				has_terrain = mountain
				has_terrain = drylands
				has_terrain = desert
				has_terrain = cavern
				has_terrain = dwarven_hold
				has_terrain = dwarven_hold_surface
				has_terrain = dwarven_road
                has_terrain = city_terrain
			}
		}
		
		modifier = {
			factor = 1.5
			OR = {
				continent = north_america
				continent = south_america
			}
		}
		
		modifier = {
			factor = 0.1
			continent = europe
		}
		modifier = {
			factor = 0
			superregion = gerudia_superregion
		}
	}
}

cocoa = {
	color = { 0.45 0.21 0.09 }
	modifier = {
		manpower_recovery_speed = 0.05
	}
	province = {
		local_manpower_modifier = 0.10
	}

	chance = {
		factor = 15
		modifier = {
			factor = 0
			OR = {
				superregion = northern_expanse_superregion
				superregion = gerudia_superregion
				continent = europe
				continent = serpentspine
			}
		}
		modifier = {
			factor = 0
			is_random_new_world = yes
			NOT = { continent = new_world } #Always in RNW
		}
		modifier = {
			factor = 0
			OR = {
				has_terrain = glacier
				has_terrain = steppe
				has_terrain = forest
				has_terrain = woods
				has_terrain = marsh
				has_climate = arid
				has_climate = arctic
				has_terrain = cavern
				has_terrain = dwarven_hold
				has_terrain = dwarven_hold_surface
				has_terrain = dwarven_road
				has_winter = mild_winter
				has_winter = normal_winter
				has_winter = severe_winter
			}
		}
		
		modifier = {
			factor = 1.5
			OR = {
				continent = south_america
			}
		}
	}
}

silk = {
	color = { 0.72 0.10 0.10 }
	modifier = {
		num_accepted_cultures = 1
	}
	province = {
		province_trade_power_value = 2
	}
	chance = {
		factor = 5
		modifier = {
			factor = 0
			OR = {
				superregion = gerudia_superregion
				continent = europe
			}
		}
		modifier = {
			factor = 0
			normal_or_historical_nations = yes
		}
		modifier = {
			factor = 0
			OR = {
				has_terrain = highlands
				has_terrain = mountain
				has_terrain = marsh
				has_terrain = steppe
				has_terrain = coastline
				has_terrain = desert
				has_terrain = coastal_desert
				has_terrain = hills
				has_terrain = drylands
				has_terrain = glacier
				has_climate = arid
				has_climate = arctic
				has_winter = mild_winter
				has_winter = normal_winter
				has_winter = severe_winter
			}
		}
		
		modifier = {
			factor = 1.5
			OR = {
				continent = asia
			}
		}

	}
}

dyes = {
	color = { 0.63 0.17 0.50 }
	modifier = {
		heir_chance = 0.33
	}
	province = {
		 province_trade_power_modifier = 0.10
	}
	
	chance = {
		factor = 15
		modifier = {
			factor = 0.1
			OR = {
				superregion = gerudia_superregion
				continent = europe
			}
		}
		modifier = {
			factor = 0.25
			has_terrain = cavern
		}
		modifier = {
			factor = 0
			NOT = { 
				has_terrain = jungle 
				has_terrain = cavern
			}
		}
		modifier = {
			factor = 0
			OR = {
				has_climate = arid
				has_climate = arctic
				has_winter = mild_winter
				has_winter = normal_winter
				has_winter = severe_winter
			}
		}
        modifier = {
            factor = 4
                has_terrain = city_terrain
        }
		modifier = {
			factor = 1000
			province_id = 2939
		}

	}
}

tropical_wood = {
	color = { 0.45 0.47 0.09 }
	modifier = {
		development_cost = -0.05
	}
	province = {
		local_build_cost = -0.2
	}
	chance = {
		factor = 25
		modifier = {
			factor = 0
			OR = {
				superregion = gerudia_superregion
				continent = europe
			}
		}
		modifier = {
			factor = 0
			NOT = { has_terrain = jungle }

		}

	}
}

livestock = {
	color = { 0.72 0.49 0.44 }
	modifier = {
		cavalry_cost = -0.1
	}
	province = {
		supply_limit_modifier = 0.5
	}
	chance = {
		factor = 30

		modifier = {
			factor = 0
			OR = {
				has_terrain = glacier
				has_terrain = marsh
				has_terrain = jungle
				has_terrain = coastline
				has_terrain = hills
				has_terrain = forest
				has_terrain = woods
				has_terrain = mountain
                has_terrain = city_terrain               
			}
		}
		modifier = {
			factor = 0.05
			
			OR = {
				has_terrain = dwarven_hold
				has_terrain = dwarven_hold_surface
			}
		}
		modifier = {
			factor = 0.1
			
			has_terrain = dwarven_road
		}
		
		modifier = {
			factor = 0.2
			
			has_terrain = cavern
		}
		modifier = {
			factor = 0.75
			has_winter = severe_winter
		}
		modifier = {
			factor = 1.25 #Pastoralists
			OR = {
				has_terrain = desert
				has_terrain = savannah
				has_terrain = highlands
				has_terrain = drylands
				has_climate = arid
			}
		}
		modifier = {
			factor = 1.5
			has_terrain = steppe
		}
		
		modifier = {
			factor = 1.25
			has_terrain = grasslands
		}
	}
}

incense = {
	color = { 0.89 0.79 0.47 }
	modifier = {
		tolerance_own = 0.5
	}
	province = {
		trade_value_modifier = 0.1
	}
	chance = {
		factor = 8

		modifier = {
			factor = 0
			OR = {
				superregion = gerudia_superregion
				superregion = northern_expanse_superregion
				continent = europe
			}
		}
		modifier = {
			factor = 0
			OR = {
				has_terrain = mountain
				has_terrain = cavern
				has_terrain = dwarven_hold
				has_terrain = dwarven_hold_surface
				has_terrain = dwarven_road
			}
		}
		
		modifier = {
			factor = 1.25
			superregion = bulwar_superregion
		}

	}
}

glass = {
	color = { 0.0 0.60 0.45 }
	modifier = {
		dip_tech_cost_modifier = -0.05
	}
	province = {
		local_production_efficiency = 0.1
	}
	chance = {
        factor = 5
        
        modifier = {
            factor = 0
            AND = {
                NOT = { development = 18 }
                NOT = { has_terrain = city_terrain }
                }
            }
		modifier = {
			factor = 2.0
			development = 22
		}
		modifier = {
			factor = 2
			has_terrain = city_terrain
		}
		modifier = {
			factor = 1000
			
			province_id = 4238
		}
	}
}

paper = {
	color = { 0.9 0.86 0.71 }
	modifier = {
		adm_tech_cost_modifier = -0.05
	}
	province = {
		local_state_maintenance_modifier = -0.1
	}
	chance = {
		factor = 5

		modifier = {
			factor = 0
			AND  = {
                NOT = { development = 18 }
                NOT = { has_terrain = city_terrain }
            }
		}
		modifier = {
			factor = 2.0
			development = 22
		}
		modifier = {
			factor = 2
			has_terrain = city_terrain
		}
	}
}

gems = {
	color = { 0.96 0.78 0.78 }
	modifier = {
		inflation_reduction = 0.05
	}
	province = {
		local_tax_modifier = 0.15
	}
	chance = {
		factor = 5


		modifier = {
			factor = 0
			is_random_new_world = yes
			NOT = { continent = new_world }
		}
		modifier = {
			factor = 0.1
			continent = europe
			OR = {
				has_terrain = forest
				has_terrain = woods
				has_terrain = drylands
				has_terrain = grasslands
				has_terrain = savannah
				has_terrain = steppe
				has_terrain = coastline
				has_terrain = coastal_desert
				has_terrain = marsh
			}
		}
		modifier = {
			factor = 0
			NOT = { has_terrain = coastline }
			continent = oceania #Pearls
		}

		modifier = {
			factor = 1.5
			OR = {
				continent = south_america
				continent = north_america
			}
		}

		modifier = {
			factor = 1.5
			OR = {
				has_terrain = mountain
				has_terrain = jungle
				has_terrain = hills
				has_terrain = highlands
				has_terrain = dwarven_hold
				has_terrain = dwarven_hold_surface
				has_terrain = coastline #Pearls
			}
		}
		modifier = {
			factor = 1.5
			is_random_new_world = yes
			has_terrain = mountain
			continent = new_world #Always in RNW
		}
		modifier = {
			factor = 1.5
			normal_or_historical_nations = no
		}
		modifier = {
			factor = 1.5
			superregion = gerudia_superregion
		}
		modifier = {
			factor = 0.6
			
			superregion = escann_superregion
		}
		modifier = {
			factor = 1.2
			
			has_terrain = cavern
			superregion = west_serpentspine_superregion
		}
	}
}

coal = {
	color = { 0.0 1.0 1.0 }
	is_latent = yes
	is_valuable = yes

	rnw_latent_chance = 7 # Kind of on average how many provinces we want to spawn with it
	
	trigger = {
		OR = {
			development = 20
			owner = { innovativeness = 20 }
		}
		provincial_institution_progress = {
			which = enlightenment
			value = 100
		}
		owner = { has_institution = enlightenment }
	}
	
	modifier = {
		global_trade_goods_size_modifier = 0.1
	}
	
	province = {
		local_state_maintenance_modifier = -0.2
	}

	chance = {
		factor = 1
	}
}

unknown = {
	color = { 0.5 0.5 0.5 }
}

damestear = {
	color = {0 230 230}
	# Trading bonus
	modifier = {
		all_power_cost = -0.05
	}
	
	province = {
		local_unrest = 3
	}
		
	chance = {
		factor = 10000
		
		modifier = {
			factor = 0
			
			AND = {
				NOT = { has_province_modifier = the_glowing_city }
			}
		}
	}
}

precursor_relics = {
	color = {230 230 30}
	# Trading bonus
	modifier = {
		trade_efficiency = 0.05
		technology_cost = -0.05
	}
	
	province = {
		local_development_cost = -0.15
	}
		
	chance = {
		factor = 10000
		
		modifier = {
			factor = 0
			
			AND = {
				NOT = { has_province_modifier = god_fragment_ruins }
				NOT = { has_province_modifier = the_dragon_house }
				NOT = { has_province_modifier = vault_ruins }
				NOT = { has_province_modifier = portal_nexus }
				NOT = { has_province_modifier = floating_city_crash_site }
			}
		}
	}
}

mithril = {
	color = {220 238 251}
	# Trading bonus
	modifier = {
		prestige = 1
	}
	
	province = {
		shock_damage_received = -0.02
		shock_damage = 0.02
	}
		
	chance = {
		factor = 1
		
		modifier = {
			factor = 0
			AND = {
				NOT = { superregion = west_serpentspine_superregion }
				NOT = { superregion = east_serpentspine_superregion }
			}
		}
		
		modifier = {
			factor = 3
			
			OR = {
				has_terrain = dwarven_hold
				has_terrain = dwarven_hold_surface
			}
		}
		
		modifier = {
			factor = 1.5
			
			has_terrain = dwarven_hold
		}
		
		modifier = {
			factor = 5
			
			has_terrain = cavern
		}
		modifier = {
			factor = 1000
			
			province_id = 4236
		}
	}
}

fungi = {
	color = {86 51 63}
	# Trading bonus
	modifier = {
		land_attrition = -0.1
	}
	
	province = {
		local_development_cost = -0.1
	}
		
	chance = {
		factor = 10
		
		modifier = {
			factor = 0
			AND = {
				NOT = { continent = serpentspine }
				NOT = { region = mushroom_forest_region }
			}
		}
		
		modifier = {
			factor = 3
			
			has_terrain = cavern
		}
		
		modifier = {
			factor = 0.6
			
			has_terrain = dwarven_road
		}
		
		modifier = {
			factor = 0.25
			
			OR = {
				has_terrain = dwarven_hold
				has_terrain = dwarven_hold_surface
			}
		}
		modifier = {
			factor = 100
			
			has_province_modifier = big_fungi
		}
		modifier = {
			factor = 3
			
			region = mushroom_forest_region
		}
	}
}

