######################################################################
# Separatist rebels. Hoardcursed version
######################################################################
hoardcursed_rebels = {

	color = { 25 180 25 }

	area = nation_rebel_tag 			# Stays within provinces of their rebel tag
	government = any				# No special preference
	defection = nation_rebel_tag			# If the country seeks independence, defection specifies what type of provinces it wants.
	independence = nation_rebel_tag 		# Seeks independence for spawn province culture. Will not spawn at all if there is no suitable tag.
	defect_delay = 30				# Can spontaneously declare independence after 60 months (earliest)
	unit_transfer = yes				# Units switch allegiance after enforcing demands.
	gfx_type = culture_province	
	will_relocate = yes	
	
	resilient = yes
	reinforcing = yes
	general = yes				
	smart = yes
	
	artillery = 0.4
	infantry = 0.6
	cavalry = 0
	
	morale = 1.4

	# Possible handle actions
	handle_action_negotiate = yes
	handle_action_stability = yes
	handle_action_build_core = yes
	handle_action_send_missionary = yes		
	handle_action_change_culture = yes
	
	# The rebel type with the highest modifier for this province gets picked
	spawn_chance = {
		factor = 1000
		modifier = {
			factor = 0
			owner = { NOT = { has_disaster = hoardcurse } }
	 	}
		modifier = {
			factor = 0
			AND = {
				NOT = { is_core = I01 }
				NOT = { is_core = I02 }
				NOT = { is_core = I03 }
				NOT = { is_core = I04 }
				NOT = { is_core = I05 }
				NOT = { is_core = I06 }
				NOT = { is_core = I07 }
				NOT = { is_core = I08 }
				NOT = { is_core = I09 }
				NOT = { is_core = I10 }
				NOT = { is_core = I11 }
				NOT = { is_core = I12 }
				NOT = { is_core = I13 }
				NOT = { is_core = I14 }
				NOT = { is_core = I15 }
				NOT = { is_core = I16 }
				NOT = { is_core = I17 }
				NOT = { is_core = I18 }
				NOT = { is_core = I19 }
				NOT = { is_core = I20 }
				NOT = { is_core = I21 }
				NOT = { is_core = I22 }
			}
		}
	}
 
 	# This is checked for EACH province in the Area of Operations
	movement_evaluation = {
		factor = 1
		modifier = {
			factor = 0.1
			units_in_province = 1
		}
		modifier = {
			factor = 0.001
			controlled_by = REB
		}
		modifier = {
			factor = 1.5
			unrest = 2
		}
		modifier = {
			factor = 1.5
			unrest = 4
		}
		modifier = {
			factor = 1.5
			unrest = 6
		}
	}
 
 	# Province Scope
 	siege_won_trigger = {
 		culture_group = REB
 	}
	siege_won_effect = {
		if = {
			limit = { NOT = { is_core = REB } }
			add_core = REB
		}
		add_nationalism = 10 # Add ten extra years of nationalism
	}
	
	# Country scope
	can_negotiate_trigger = {
		is_at_war = no
	}
	
	# Country scope
	can_enforce_trigger = {
		always = yes
	}
	
	# Localisation for their demands
	demands_description = "nationalist_rebels_demand"
	
	# Country scope
	demands_enforced_effect = {
		add_prestige = -10	
		if = {
			limit = {
				exists = REB
			}
			every_owned_province = {
				limit = {
					has_rebel_faction = REB
					culture = REB
				}
				if = {
					limit = { NOT = { is_core = REB } }
					add_core = REB
				}			
				cede_province = REB
			}			
		}
		if = {
			limit = {
				NOT = { exists = REB }
			}
			every_owned_province = {
				limit = {
					has_rebel_faction = REB
					culture = REB
					NOT = { is_core = REB }
					culture = REB
				}
				add_core = REB
			}
			every_owned_province = {
				limit = {
					is_core = REB
				}
				hidden_effect = { add_unrest = -15 }
			}
			create_vassal = REB
		}
	}
}
