#250 - Fife

owner = A46
controller = A46
add_core = A46
culture = arbarani
religion = regent_court

hre = yes

base_tax = 2
base_production = 2
base_manpower = 2

trade_goods = livestock

capital = ""

is_city = yes







