# No previous file for Roanoke
owner = G74
controller = G74
add_core = G74
culture = yodhanpir
religion = gods_of_the_taychend
capital = ""

hre = no

base_tax = 3
base_production = 3
base_manpower = 2

trade_goods = spices

1420.1.1 = {	
	owner = G64
	controller = G64
	add_core = G64
}