#44 - Hamburg | 

owner = A93
controller = A93
add_core = A93
culture = esmari
religion = regent_court

hre = yes

base_tax = 5
base_production = 5
base_manpower = 3

trade_goods = cloth

capital = ""

is_city = yes





