# No previous file for Pegaya Orda

owner = F09
controller = F09
add_core = F09
add_core = F01
culture = kheteratan
religion = khetist

hre = no

base_tax = 2
base_production = 2
base_manpower = 2

trade_goods = livestock

capital = ""

is_city = yes



