# No previous file for Ayutthaya
owner = F44
controller = F44
add_core = F44
culture = zanite
religion = bulwari_sun_cult

hre = no

base_tax = 5
base_production = 4
base_manpower = 3

trade_goods = glass

capital = ""

is_city = yes













add_permanent_province_modifier = {
	name = elven_minority_integrated_large
	duration = -1
}