#63 - Erfurt

owner = A08
controller = A08
add_core = A08
culture = visfoot_halfling
religion = regent_court
hre = no
base_tax = 10
base_production = 10
trade_goods = dyes
center_of_trade = 2
base_manpower = 6
capital = "South Viswall"
is_city = yes
fort_15th = yes









extra_cost = 10

