# No previous file for Esfjall
owner = Z15
controller = Z15
add_core = Z15
culture = olavish
religion = skaldhyrric_faith

hre = no

base_tax = 1
base_production = 1
base_manpower = 1

trade_goods = wool

capital = ""

is_city = yes






