
vanbury_guild_eordand = {
	slot = 1
	generic = no
	ai = yes
	potential = {
		tag = G97
	}
	has_country_shield = yes
	
	vanbury_guild_route_to_eordand = {
		icon = mission_invade_island
		required_missions = {
			vanbury_guild_colonization_of_vanburia
		}
		position = 2
		
		provinces_to_highlight = {
			area = areaeor6_area
			NOT = {
				owned_by = ROOT
			}
		}
		
		trigger = {
			areaeor6_area = {
				owned_by = ROOT
			}
		}
		
		effect = {
			gathgob_area = {
				add_permanent_claim = ROOT
			}
			paskala_area = {
				add_permanent_claim = ROOT
			}
		}
	}
	
	vanbury_guild_eordand_landing = {
		icon = mission_conquer_50_development
		required_missions = {
			vanbury_guild_route_to_eordand
		}
		position = 3
		
		provinces_to_highlight = {
			OR = {
				area = gathgob_area
				area = paskala_area
			}
			trade_goods = precursor_relics
			NOT = {
				country_or_non_sovereign_subject_holds = ROOT
			}
		}
		
		trigger = {
			custom_trigger_tooltip = {
				tooltip = vg_landing_relic_tooltip
				gathgob_area = {
					type = all
					OR = {
						AND = {
							trade_goods = precursor_relics
							country_or_non_sovereign_subject_holds = ROOT
						}
						NOT = { trade_goods = precursor_relics }
					}
				}
				paskala_area = {
					type = all
					OR = {
						AND = {
							trade_goods = precursor_relics
							country_or_non_sovereign_subject_holds = ROOT
						}
						NOT = { trade_goods = precursor_relics }
					}
				}
			}
		}
		
		effect = {
			sarmadfar_region = {
				add_permanent_claim = ROOT
			}
			add_country_modifier = {
				name = vanbury_guild_fighting_seasons
				duration = 7300 # 20 years
			}
		}
	}
	
	vanbury_guild_summer = {
		icon = mission_conquer_andhra_bah
		required_missions = {
			vanbury_guild_eordand_landing
		}
		position = 4
		
		provinces_to_highlight = {
			region = sarmadfar_region
			trade_goods = precursor_relics
			NOT = {
				country_or_non_sovereign_subject_holds = ROOT
			}
		}
		
		trigger = {
			1683 = { # Sarmadfar
				trade_share = {
					country = ROOT
					share = 80
				}
			}
			custom_trigger_tooltip = {
				tooltip = vg_summer_relic_tooltip
				sarmadfar_region = {
					type = all
					OR = {
						AND = {
							trade_goods = precursor_relics
							country_or_non_sovereign_subject_holds = ROOT
						}
						NOT = { trade_goods = precursor_relics }
					}
				}
			}
		}
		
		effect = {
			drisleak_area = {
				add_permanent_claim = ROOT
			}
			monkast_area = {
				add_permanent_claim = ROOT
			}
			trasand_area = {
				add_permanent_claim = ROOT
			}
			darhan_area = {
				add_permanent_claim = ROOT
			}
			add_country_modifier = {
				name = vanbury_guild_summer_controlled
				duration = 7300 # 20 years
			}
		}
	}
	
	vanbury_guild_spring = {
		icon = mission_rb_war_of_the_roses
		required_missions = {
			vanbury_guild_summer
		}
		position = 5
		
		provinces_to_highlight = {
			OR = {
				area = drisleak_area
				area = monkast_area
				area = trasand_area
				area = darhan_area
			}
			trade_goods = precursor_relics
			NOT = {
				country_or_non_sovereign_subject_holds = ROOT
			}
		}
		
		trigger = {
			custom_trigger_tooltip = {
				tooltip = vg_spring_relic_tooltip
				drisleak_area = {
					type = all
					OR = {
						AND = {
							trade_goods = precursor_relics
							country_or_non_sovereign_subject_holds = ROOT
						}
						NOT = { trade_goods = precursor_relics }
					}
				}
				monkast_area = {
					type = all
					OR = {
						AND = {
							trade_goods = precursor_relics
							country_or_non_sovereign_subject_holds = ROOT
						}
						NOT = { trade_goods = precursor_relics }
					}
				}
				trasand_area = {
					type = all
					OR = {
						AND = {
							trade_goods = precursor_relics
							country_or_non_sovereign_subject_holds = ROOT
						}
						NOT = { trade_goods = precursor_relics }
					}
				}
				darhan_area = {
					type = all
					OR = {
						AND = {
							trade_goods = precursor_relics
							country_or_non_sovereign_subject_holds = ROOT
						}
						NOT = { trade_goods = precursor_relics }
					}
				}
			}
		}
		
		effect = {
			glorelthir_region = {
				add_permanent_claim = ROOT
			}
			add_country_modifier = {
				name = vanbury_guild_spring_controlled
				duration = 7300 # 20 years
			}
		}
	}
	
	vanbury_guild_autumn = {
		icon = mission_rb_import_potatoes
		required_missions = {
			vanbury_guild_spring
		}
		position = 6
		
		provinces_to_highlight = {
			region = glorelthir_region
			trade_goods = precursor_relics
			NOT = {
				country_or_non_sovereign_subject_holds = ROOT
			}
		}
		
		trigger = {
			1690 = { # Eordand
				trade_share = {
					country = ROOT
					share = 80
				}
			}
			custom_trigger_tooltip = {
				tooltip = vg_autumn_relic_tooltip
				glorelthir_region = {
					type = all
					OR = {
						AND = {
							trade_goods = precursor_relics
							country_or_non_sovereign_subject_holds = ROOT
						}
						NOT = { trade_goods = precursor_relics }
					}
				}
			}
		}
		
		effect = {
			tamharcroc_area = {
				add_permanent_claim = ROOT
			}
			fogharbac_area = {
				add_permanent_claim = ROOT
			}
			fardach_area = {
				add_permanent_claim = ROOT
			}
			dartir_area = {
				add_permanent_claim = ROOT
			}
			add_country_modifier = {
				name = vanbury_guild_autumn_controlled
				duration = 7300 # 20 years
			}
		}
	}
	
	vanbury_guild_winter = {
		icon = mission_protect_white_sea_trade
		required_missions = {
			vanbury_guild_autumn
		}
		position = 7
		
		provinces_to_highlight = {
			OR = {
				area = tamharcroc_area
				area = fogharbac_area
				area = fardach_area
				area = dartir_area
			}
			trade_goods = precursor_relics
			NOT = {
				country_or_non_sovereign_subject_holds = ROOT
			}
		}
		
		trigger = {
			custom_trigger_tooltip = {
				tooltip = vg_winter_relic_tooltip
				tamharcroc_area = {
					type = all
					OR = {
						AND = {
							trade_goods = precursor_relics
							country_or_non_sovereign_subject_holds = ROOT
						}
						NOT = { trade_goods = precursor_relics }
					}
				}
				fogharbac_area = {
					type = all
					OR = {
						AND = {
							trade_goods = precursor_relics
							country_or_non_sovereign_subject_holds = ROOT
						}
						NOT = { trade_goods = precursor_relics }
					}
				}
				fardach_area = {
					type = all
					OR = {
						AND = {
							trade_goods = precursor_relics
							country_or_non_sovereign_subject_holds = ROOT
						}
						NOT = { trade_goods = precursor_relics }
					}
				}
				dartir_area = {
					type = all
					OR = {
						AND = {
							trade_goods = precursor_relics
							country_or_non_sovereign_subject_holds = ROOT
						}
						NOT = { trade_goods = precursor_relics }
					}
				}
			}
		}
		
		effect = {
			randrunnse_region = {
				add_permanent_claim = ROOT
			}
			add_country_modifier = {
				name = vanbury_guild_winter_controlled
				duration = 7300 # 20 years
			}
		}
	}
	
	vanbury_guild_four_seasons = {
		icon = mission_a_great_mandala
		required_missions = {
			vanbury_guild_winter
		}
		position = 8
		
		provinces_to_highlight = {
			superregion = eordand_superregion
			NOT = {
				country_or_non_sovereign_subject_holds = ROOT
			}
		}
		
		trigger = {
			eordand_superregion = {
				type = all
				country_or_non_sovereign_subject_holds = ROOT
			}
		}
		
		effect = {
			add_prestige = 25
			add_country_modifier = {
				name = vanbury_guild_four_seasons_controlled
				duration = 7300 # 20 years
			}
		}
	}
	
}

vanbury_guild_kheionai = {
	slot = 2
	generic = no
	ai = yes
	potential = {
		tag = G97
	}
	has_country_shield = yes
	
	vanbury_guild_colonization_of_vanburia = {
		icon = mission_settlers_north_america
		required_missions = { }
		position = 1
		
		provinces_to_highlight = {
			OR = {
				area = west_vanburia_area
				area = north_vanburia_area
				area = east_vanburia_area
			}
			NOT = {
				owned_by = ROOT
			}
		}
		
		trigger = {
			west_vanburia_area = {
				type = all
				owned_by = ROOT
			}
			north_vanburia_area = {
				type = all
				owned_by = ROOT
			}
			east_vanburia_area = {
				type = all
				owned_by = ROOT
			}
		}
		
		effect = {
			add_country_modifier = {
				name = colonial_enthusiasm
				duration = 7300 # 20 years
			}
		}
	}
	
	vanbury_guild_route_to_kheionai = {
		icon = mission_invade_island
		required_missions = {
			vanbury_guild_colonization_of_vanburia
		}
		position = 2
		
		provinces_to_highlight = {
			area = broken_islands_area
			NOT = {
				owned_by = ROOT
			}
		}
		
		trigger = {
			broken_islands_area = {
				type = all
				owned_by = ROOT
			}
		}
		
		effect = {
			arpedifer_area = {
				add_permanent_claim = ROOT
			}
			mtelian_area = {
				add_permanent_claim = ROOT
			}
			anisidhan_area = {
				add_permanent_claim = ROOT
			}
		}
	}
	
	vanbury_guild_foothold_on_alecand = {
		icon = mission_conquer_riga
		required_missions = {
			vanbury_guild_route_to_kheionai
		}
		position = 3
		
		provinces_to_highlight = {
			province_id = 2728 # Arpedifer
			NOT = {
				country_or_non_sovereign_subject_holds = ROOT
			}
		}
		
		trigger = {
			2728 = {
				country_or_non_sovereign_subject_holds = ROOT
			}
		}
		
		effect = {
			oktikheion_area = {
				add_permanent_claim = ROOT
			}
			arpenisi_area = {
				add_permanent_claim = ROOT
			}
			kimanis_area = {
				add_permanent_claim = ROOT
			}
			degakheion_area = {
				add_permanent_claim = ROOT
			}
			add_country_modifier = {
				name = vanbury_guild_fighting_city_states
				duration = 7300 # 20 years
			}
		}
	}
	
	vanbury_guild_northern_cities = {
		icon = mission_eastern_european_city
		required_missions = {
			vanbury_guild_foothold_on_alecand
		}
		position = 4
		
		provinces_to_highlight = {
			OR = {
				province_id = 2731 # Oktikheion
				province_id = 2732 # Kimanis
				province_id = 2736 # Degakheion
			}
			NOT = {
				country_or_non_sovereign_subject_holds = ROOT
			}
		}
		
		trigger = {
			2731 = {
				country_or_non_sovereign_subject_holds = ROOT
			}
			2732 = {
				country_or_non_sovereign_subject_holds = ROOT
			}
			2736 = {
				country_or_non_sovereign_subject_holds = ROOT
			}
		}
		
		effect = {
			alecand_region = {
				add_permanent_claim = ROOT
			}
			2736 = {
				add_permanent_province_modifier = {
					name = vanbury_guild_degkheion_relic_excavation
					duration = -1
				}
			}
		}
	}
	
	vanbury_guild_southern_cities = {
		icon = mission_hanseatic_city
		required_missions = {
			vanbury_guild_northern_cities
		}
		position = 5
		
		provinces_to_highlight = {
			OR = {
				province_id = 2738 # Orman
				province_id = 2773 # Kherka
				province_id = 2745 # Lokemeion
			}
			NOT = {
				country_or_non_sovereign_subject_holds = ROOT
			}
		}
		
		trigger = {
			2738 = {
				country_or_non_sovereign_subject_holds = ROOT
			}
			2773 = {
				country_or_non_sovereign_subject_holds = ROOT
			}
			2745 = {
				country_or_non_sovereign_subject_holds = ROOT
			}
		}
		
		effect = {
			vothelisi_area = {
				add_permanent_claim = ROOT
			}
			anisikheion_area = {
				add_permanent_claim = ROOT
			}
			soreion_area = {
				add_permanent_claim = ROOT
			}
			add_country_modifier = {
				name = vanbury_guild_kheionai_philosophy
				duration = 7300 # 20 years
			}
		}
	}
	
	vanbury_guild_islands_of_the_cleaved_sea = {
		icon = mission_rb_conquer_the_isles
		required_missions = {
			vanbury_guild_southern_cities
		}
		position = 6
		
		provinces_to_highlight = {
			OR = {
				province_id = 2717 # Aniskheion
				province_id = 2720 # Lae
			}
			NOT = {
				country_or_non_sovereign_subject_holds = ROOT
			}
		}
		
		trigger = {
			2717 = {
				country_or_non_sovereign_subject_holds = ROOT
			}
			2720 = {
				country_or_non_sovereign_subject_holds = ROOT
			}
		}
		
		effect = {
			devand_region = {
				add_permanent_claim = ROOT
			}
			add_country_modifier = {
				name = vanbury_guild_cleaved_sea_controlled
				duration = 7300 # 20 years
			}
		}
	}
	
	vanbury_guild_cities_of_kheionai_mission = {
		icon = mission_rb_hanseatic_east
		required_missions = {
			vanbury_guild_islands_of_the_cleaved_sea
		}
		position = 8
		
		provinces_to_highlight = {
			OR = {
				region = alecand_region
				region = devand_region
			}
			NOT = {
				country_or_non_sovereign_subject_holds = ROOT
			}
		}
		
		trigger = {
			alecand_region = {
				type = all
				country_or_non_sovereign_subject_holds = ROOT
			}
			devand_region = {
				type = all
				country_or_non_sovereign_subject_holds = ROOT
			}
		}
		
		effect = {
			add_prestige = 25
			add_country_modifier = {
				name = vanbury_guild_cities_of_kheionai
				duration = 7300 # 20 years
			}
		}
	}
	
	vanbury_guild_precursor_relic_monopoly_mission = {
		icon = mission_trade_with_cathay
		required_missions = {
			vanbury_guild_four_seasons
			vanbury_guild_cities_of_kheionai_mission
		}
		position = 9
		
		trigger = {
			trading_bonus = {
				trade_goods = precursor_relics
				value = yes
			}
			production_leader = {
				trade_goods = precursor_relics
			}
		}
		
		effect = {
			add_country_modifier = {
				name = vanbury_guild_precursor_relic_monopoly
				duration = -1
			}
		}
	}
	
}

vanbury_guild_capital = {
	slot = 3
	generic = no
	ai = yes
	potential = {
		tag = G97
	}
	has_country_shield = yes
	
	vanbury_guild_foundation_of_ricardsport = {
		icon = mission_colonial
		required_missions = { }
		position = 1
		
		trigger = {
			2164 = {
				development = 20
				OR = {
					has_building = workshop
					trade_goods = gold
				}
			}
		}
		
		effect = {
			2164 = {
				change_trade_goods = iron
				add_center_of_trade_level = 1
				set_province_flag = ricardsport_founded
			}
		}
	}
	
	vanbury_guild_a_new_foundry = {
		icon = mission_rb_central_belt_coal_mining
		required_missions = {
			vanbury_guild_foundation_of_ricardsport
		}
		position = 4
		
		trigger = {
			2164 = {
				development = 30
				has_building = weapons
			}
			years_of_income = 2
		}
		
		effect = {
			add_years_of_income = -2
			2164 = {
				add_permanent_province_modifier = {
					name = vanbury_steel_foundry
					duration = -1
				}
			}
		}
	}
	
	vanbury_guild_ricard_university = {
		icon = mission_early_modern_university
		required_missions = {
			vanbury_guild_a_new_foundry
		}
		position = 5
		
		trigger = {
			2164 = {
				development = 40
				has_building = university
			}
		}
		
		effect = {
			add_country_modifier = {
				name = vanbury_guild_ricard_university
				duration = 7300 # 20 years
			}
		}
	}
	
	vanbury_guild_a_new_source_of_power = {
		icon = mission_rb_build_furnaces
		required_missions = { }
		position = 6
		
		trigger = {
			any_owned_province = {
				trade_goods = coal
				has_building = furnace
			}
		}
		
		effect = {
			random_owned_province = {
				limit = {
					trade_goods = coal
					has_building = furnace
				}
				add_base_production = 2
			}
		}
	}
	
}

vanbury_guild_weapons = {
	slot = 4
	generic = no
	ai = yes
	potential = {
		tag = G97
	}
	has_country_shield = yes
	
	vanbury_guild_port_cities_of_tor_nayyi = {
		icon = mission_galleys_in_port
		required_missions = {
			vanbury_guild_foundation_of_ricardsport
		}
		position = 2
		
		trigger = {
			num_of_owned_provinces_with = {
				value = 5
				
				region = tor_nayyi_region
				is_core = ROOT
				is_city = yes
				development = 20
				has_building = dock
			}
		}
		
		effect = {
			custom_tooltip = vg_port_cities_tooltip
			hidden_effect = {
				random_owned_province = {
					limit = {
						region = tor_nayyi_region
						is_core = ROOT
						is_city = yes
						development = 20
						has_building = dock
						NOT = { has_province_modifier = vanbury_guild_port_city }
					}
					add_permanent_province_modifier = {
						name = vanbury_guild_port_city
						duration = -1
					}
				}
				random_owned_province = {
					limit = {
						region = tor_nayyi_region
						is_core = ROOT
						is_city = yes
						development = 20
						has_building = dock
						NOT = { has_province_modifier = vanbury_guild_port_city }
					}
					add_permanent_province_modifier = {
						name = vanbury_guild_port_city
						duration = -1
					}
				}
				random_owned_province = {
					limit = {
						region = tor_nayyi_region
						is_core = ROOT
						is_city = yes
						development = 20
						has_building = dock
						NOT = { has_province_modifier = vanbury_guild_port_city }
					}
					add_permanent_province_modifier = {
						name = vanbury_guild_port_city
						duration = -1
					}
				}
				random_owned_province = {
					limit = {
						region = tor_nayyi_region
						is_core = ROOT
						is_city = yes
						development = 20
						has_building = dock
						NOT = { has_province_modifier = vanbury_guild_port_city }
					}
					add_permanent_province_modifier = {
						name = vanbury_guild_port_city
						duration = -1
					}
				}
				random_owned_province = {
					limit = {
						region = tor_nayyi_region
						is_core = ROOT
						is_city = yes
						development = 20
						has_building = dock
						NOT = { has_province_modifier = vanbury_guild_port_city }
					}
					add_permanent_province_modifier = {
						name = vanbury_guild_port_city
						duration = -1
					}
				}
			}
		}
	}
	
	vanbury_guild_cities_of_industry = {
		icon = mission_have_manufactories
		required_missions = {
			vanbury_guild_port_cities_of_tor_nayyi
		}
		position = 3
		
		trigger = {
			num_of_owned_provinces_with = {
				value = 5
				
				has_province_modifier = vanbury_guild_port_city
				development = 30
				OR = {
					has_building = mills
					has_building = farm_estate
					has_building = tradecompany
					has_building = plantations
					has_building = textile
					has_building = weapons
					has_building = wharf
					has_building = furnace
				}
			}
		}
		
		effect = {
			add_country_modifier = {
				name = production_improvements
				duration = 7300 # 20 years
			}
		}
	}
	
	vanbury_guild_preliminary_precursor_weaponry_research = {
		icon = mission_cannons_firing
		required_missions = {
			vanbury_guild_an_alliance_with_artificers
		}
		position = 4
		
		trigger = {
			precursor_relics = 1
		}
		
		effect = {
			add_country_modifier = {
				name = vanbury_guild_artificer_weapon_lvl1
				duration = -1
			}
		}
	}
	
	vanbury_guild_standardization_of_artificer_weapons = {
		icon = mission_cannons_firing
		required_missions = {
			vanbury_guild_a_new_foundry
			vanbury_guild_preliminary_precursor_weaponry_research
		}
		position = 5
		
		trigger = {
			precursor_relics = 3
		}
		
		effect = {
			hidden_effect = {
				remove_country_modifier = vanbury_guild_artificer_weapon_lvl1
			}
			add_country_modifier = {
				name = vanbury_guild_artificer_weapon_lvl2
				duration = -1
			}
		}
	}
	
	vanbury_guild_improved_design = {
		icon = mission_cannons_firing
		required_missions = {
			vanbury_guild_ricard_university
			vanbury_guild_standardization_of_artificer_weapons
		}
		position = 6
		
		trigger = {
			precursor_relics = 6
		}
		
		effect = {
			hidden_effect = {
				remove_country_modifier = vanbury_guild_artificer_weapon_lvl2
			}
			add_country_modifier = {
				name = vanbury_guild_artificer_weapon_lvl3
				duration = -1
			}
		}
	}
	
	vanbury_guild_mass_production_of_artificer_weapons = {
		icon = mission_cannons_firing
		required_missions = {
			#vanbury_guild_a_new_source_of_power #uncomment when coal in aelantir
			vanbury_guild_improved_design
		}
		position = 7
		
		trigger = {
			precursor_relics = 10
		}
		
		effect = {
			hidden_effect = {
				remove_country_modifier = vanbury_guild_artificer_weapon_lvl3
			}
			add_country_modifier = {
				name = vanbury_guild_artificer_weapon_lvl4
				duration = -1
			}
		}
	}
	
}

vanbury_guild_misc = {
	slot = 5
	generic = no
	ai = yes
	potential = {
		tag = G97
	}
	has_country_shield = yes
	
	vanbury_guild_an_alliance_with_artificers = {
		icon = mission_alliances
		required_missions = {
			vanbury_guild_port_cities_of_tor_nayyi
		}
		position = 3
		
		trigger = {
			OR = {
				#alliance_with = # Triarchy
				alliance_with = H30 # Gommoport
				alliance_with = H31 # Zurzemexia
				alliance_with = H32 # Mestikardu
			}
		}
		
		effect = {
			country_event = {
				id = flavor_vanbury_guild.2
				days = 1
			}
		}
	}
	
	vanbury_guild_a_new_form_of_government = {
		icon = mission_scholar_officials
		required_missions = {
			vanbury_guild_an_alliance_with_artificers
		}
		position = 4
		
		trigger = {
			has_institution = manufactories
			
			government = republic
			OR = {
				#AND = {
					#alliance_with = # Triarchy
					#reverse_has_opinion = {
					#	who = Triacrhy
					#	value = 150
					#}
				#}
				AND = {
					alliance_with = H30 # Gommoport
					reverse_has_opinion = {
						who = H30
						value = 150
					}
				}
				AND = {
					alliance_with = H31 # Zurzemexia
					reverse_has_opinion = {
						who = H31
						value = 150
					}
				}
				AND = {
					alliance_with = H32 # Mestikardu
					reverse_has_opinion = {
						who = H32
						value = 150
					}
				}
			}
		}
		
		effect = {
			add_government_reform = technocracy_republic_reform
		}
	}
	
	vanbury_guild_silver_mines_of_amadia = {
		icon = mission_establish_mint_towns
		required_missions = { }
		position = 5
		
		trigger = {
			amadia_region = {
				trade_goods = gold
				is_city = yes
				owned_by = ROOT
			}
		}
		
		effect = {
			random_owned_province = {
				limit = {
					region = amadia_region
					trade_goods = gold
				}
				add_base_production = 2
			}
		}
	}
	
	vanbury_guild_iron_for_our_foundries = {
		icon = mission_build_up_to_force_limit
		required_missions = { }
		position = 6
		
		trigger = {
			num_of_owned_provinces_with = {
				value = 3
				
				is_capital = no
				trade_goods = iron
			}
		}
		
		effect = {
			random_owned_province = {
				limit = {
					is_capital = no
					trade_goods = iron
				}
				add_base_production = 1
				add_base_manpower = 1
			}
			random_owned_province = {
				limit = {
					is_capital = no
					trade_goods = iron
				}
				add_base_production = 1
				add_base_manpower = 1
			}
			random_owned_province = {
				limit = {
					is_capital = no
					trade_goods = iron
				}
				add_base_production = 1
				add_base_manpower = 1
			}
		}
	}
	
	vanbury_guild_patrolling_our_waters = {
		icon = mission_establish_high_seas_navy
		required_missions = { }
		position = 7
		
		trigger = {
			num_of_light_ship = 30
		}
		
		effect = {
			add_country_modifier = {
				name = merchant_navy
				duration = 7300 # 20 years
			}
		}
	}
	
}
