
namespace = verne


country_event = {
	id = verne.1
	title = verne.1.t
	desc = verne.1.d
	picture = HARBOUR_eventPicture
	
	is_triggered_only = yes
	
	trigger = {
		always = yes
	}
	
	option = {
		name = verne.1.a
		ai_chance = { factor = 50 }
		define_explorer = {
				name = "Ruben of Napesbay"
				fire = 2
				shock = 4
				manuever = 6
				siege = 2
			}
	}
	option = {
		name = verne.1.b
		ai_chance = { factor = 50 }
		define_advisor = {
				type = naval_reformer
				name = "Ruben of Napesbay"
				skill = 3
				cost_multiplier = 0.25
				culture = vernman
			}		
	}
}

country_event = {
	id = verne.2
	title = verne.2.t
	desc = verne.2.d
	picture = CONQUEST_eventPicture
	
	is_triggered_only = yes
	
	trigger = {
		always = yes
	}
	
	option = {
		name = verne.2.a
		ai_chance = { factor = 50 }
		define_conquistador = {
				name = "Ardan Orcsbane"
				fire = 4
				shock = 8
				manuever = 6
				siege = 4
				trait = wyvern_rider_personality
			}
	}
	option = {
		name = verne.2.b
		ai_chance = { factor = 50 }
		define_advisor = {
				type = army_reformer
				name = "Ardan Orcsbane"
				skill = 3
				cost_multiplier = 0.25
				culture = vernman	
		}
	}
}

country_event = {
	id = verne.4
	title = verne.4.t
	desc = verne.4.d
	picture = HORSE_ON_HORSEBACK_eventPicture
	
	is_triggered_only = yes
	
	trigger = {
		always = yes
	}
	
	option = {
		name = verne.4.a
		ai_chance = { factor = 50 }
		add_treasury = -400
		add_country_modifier = {
				name = "verne_hunting_eggs"
				duration = 10950
			}
		set_country_flag = verne_egg_hunt
	}
	option = {
		name = verne.4.b
		ai_chance = { factor = 50 }
		add_treasury = -400
		add_adm_power = -200
		add_dip_power = -200
		add_mil_power = -200
		add_country_modifier = {
				name = "verne_hunting_eggs"
				duration = 5475
			}
		set_country_flag = verne_egg_hunt
	}
}

country_event = {
	id = verne.5
	title = verne.5.t
	desc = verne.5.d
	picture = TOURNAMENT_eventPicture
	
	is_triggered_only = yes
	
	trigger = {
		always = yes
	}
	
	option = {
		name = verne.5.a
		ai_chance = { factor = 50 }
		define_conquistador = {
				name = "Laurens of Thanallen"
				fire = 2
				shock = 4
				manuever = 4
				siege = 2
			}
	}
	option = {
		name = verne.5.b
		ai_chance = { factor = 50 }
		define_advisor = {
				type = grand_captain
				name = "Laurens of Thanallen"
				skill = 3
				cost_multiplier = 0.25
				culture = vernman
			}
	}
}

country_event = {
	id = verne.6
	title = verne.6.t
	desc = verne.6.d
	picture = ELECTION_REPUBLIC_eventPicture
	
	is_triggered_only = yes
	
	trigger = {
		always = yes
	}
	
	option = {
		name = verne.6.a
		ai_chance = { factor = 50 }
		define_advisor = {
				type = naval_reformer
				name = "Daravan of Damespearl"
				skill = 3
				cost_multiplier = 0.25
				culture = vernman
			}
	}
	option = {
		name = verne.6.b
		ai_chance = { factor = 50 }
		define_explorer = { 
				name = "Daravan of Damespearl"
				fire = 4
				shock = 4
				manuever = 6
				siege = 2
			}	
	}
}

country_event = {
	id = verne.7
	title = verne.7.t
	desc = verne.7.d
	picture = TRADEGOODS_eventPicture
	
	is_triggered_only = yes
	
	trigger = {
		always = yes
	}
	
	option = {
		name = verne.7.a
		ai_chance = { factor = 50 }
		define_explorer = {
				name = "Galinda Davies"
				female = yes
				fire = 6
				shock = 3
				manuever = 8
				siege = 4
			}
	}
	option = {
		name = verne.7.b
		ai_chance = { factor = 50 }
		define_advisor = {
				type = trader
				name = "Galinda Davies"
				female = yes
				skill = 3
				cost_multiplier = 0.25
				culture = vernman
			}
	}
}

country_event = {
	id = verne.8
	title = verne.8.t
	desc = verne.8.d
	picture = SHIP_SAILING_eventPicture
	
	is_triggered_only = yes
	
	trigger = {
		always = yes
	}
	
	option = {
		name = verne.8.a
		ai_chance = { factor = 50 }
		define_advisor = {
				type = navigator
				name = "Isabel the Intrepid"
				female = yes
				skill = 3
				cost_multiplier = 0.25
				culture = vernman
			}
	}
	option = {
		name = verne.8.b
		ai_chance = { factor = 50 }
		define_explorer = {
				name = "Isabel the Intrepid"
				female = yes
				fire = 3
				shock = 3
				manuever = 8
				siege = 6
			}
	}
}
country_event = {
	id = verne.9
	title = verne.9.t
	desc = verne.9.d
	picture = LAND_MILITARY_eventPicture
	
	is_triggered_only = yes
	
	trigger = {
		always = yes
	}
	
	option = {
		name = verne.9.a
		trigger = { accepted_culture = hill_gnoll }
		ai_chance = { factor = 50 }
		define_conquistador = {
				name = "Dokkuat"
				fire = 2
				shock = 4
				manuever = 4
				siege = 2
			}
	}
	option = {
		name = verne.9.b
		ai_chance = { factor = 50 }
		add_treasury = 200
	}
}

country_event = {
	id = verne.10
	title = verne.10.t
	desc = verne.10.d
	picture = INVENTION_eventPicture
	
	is_triggered_only = yes
	
	trigger = {
		always = yes
	}
	
	option = {
		name = verne.10.a
		ai_chance = { factor = 100 }
		add_treasury = -600
		set_country_flag = verne_capital_sanctuary
		292 = {
				add_permanent_province_modifier = {
					name = verne_sanctuary
					duration = -1
				}
			}
		
	}
	option = {
		name = verne.10.b
		trigger = { owns_core_province = 331 }
		ai_chance = { factor = 0 }
		add_treasury = -400
		set_country_flag = verne_oldtower_sanctuary
		331 = {
				add_permanent_province_modifier = {
					name = verne_sanctuary
					duration = -1
				}
		}
	}
}

country_event = {
	id = verne.11
	title = verne.11.t
	desc = verne.11.d
	picture = IMPORTANT_STATUE_eventPicture
	
	trigger = {
		NOT = { has_country_modifier = verne_hunting_eggs }
		has_country_flag = verne_egg_hunt
	}
	
	option = {
		name = verne.11.a
		ai_chance = { factor = 100 }
		clr_country_flag = verne_egg_hunt
		add_country_modifier = {
				name = "verne_found_eggs"
				duration = -1
			}
	}
}

# Corinite Adventurers
country_event = {
	id = verne.12
	title = verne.12.t
	desc = verne.12.d
	picture = RELIGION_eventPicture
	
	fire_only_once = yes
	
	trigger = {
		tag = A33
			
		is_religion_enabled = corinite
		
		NOT = { religion = corinite }
	}
	
	mean_time_to_happen = {
		months = 48
		
		modifier = {
			factor = 0.5
			any_owned_province = { 
				religion = corinite
			}
		}
	}
	
	immediate = {
		hidden_effect = {
			capital_scope = {
				every_province_in_state = {
					change_religion = corinite
				}
			}
			every_owned_province = {
				limit = { has_estate = estate_adventurers }
				change_religion = corinite
			}
		}
	}
	
	#Convert to Corinite
	option = {
		name = verne.12.a
		ai_chance = {
			factor = 80
			modifier = {
				factor = 3
				any_owned_province = {
				religion = corinite
				}
			}
			modifier = {
				factor = 0.5
				is_emperor = yes
			}
			modifier = {
				factor = 3
				any_owned_province = {
				is_reformation_center = yes
				}
			}
			modifier = {
				factor = 1.5
				has_personal_deity = corin
			}
			modifier = {
				factor = 1.5
				mil = 4
			}
			modifier = {
				factor = 1.5
				personality = ai_militarist
			}
			modifier = {
				factor = 1.25
				ruler_has_personality = inspiring_leader_personality
			}
			modifier = {
				factor = 1.25
				ruler_has_personality = bold_fighter_personality
			}
		}
		capital_scope = {
			change_religion = corinite
			add_reform_center = corinite
			add_permanent_province_modifier = {
				name = "religious_zeal_at_conv"
				duration = 9000
			}
		}
		change_religion = corinite
		add_country_modifier = {
			name = "conversion_zeal"
			duration = 3650
		}
	}
	
	#Stay Regent Court
	option = {
		name = verne.12.b
		ai_chance = {
			factor = 20
			modifier = {
				factor = 1.25
				stability = 3
			}
			modifier = {
				factor = 1.25
				has_personal_deity = adean
			}
			modifier = {
				factor = 1.25
				ruler_has_personality = craven_personality
			}
			modifier = {
				factor = 1.25
				ruler_has_personality = careful_personality
			}
			modifier = {
				factor = 2
				is_defender_of_faith = yes
			}
		}
		add_stability = -1
	}
}

country_event = {
	id = verne.13
	title = verne.13.t
	desc = verne.13.d
	picture = EXPLORERS_eventPicture
	
	trigger = {
		tag = A33
		has_country_modifier = verne_wyvern_riders
		}
		
	mean_time_to_happen = {
		months = 960
	}
	
	immediate = {
		hidden_effect = {
			set_saved_name = {
				key = root_name_male
				type = advisor
				scope = ROOT
			}
			set_saved_name = {
				key = root_name_female
				type = advisor
				female = yes
				scope = ROOT
			}
		}
	}
	
	option = {
		name = verne.13.a
		if = {
			limit = {
				army_tradition = 0.00
				NOT = { army_tradition = 20 }
			}
			random_list = {
				50 = {
					define_conquistador = {
						fire = 2
						shock = 6
						manuever = 3
						siege = 2
						trait = wyvern_rider_personality
						name = root_name_male
					}
				}
				50 = {
					define_conquistador = {
						fire = 2
						shock = 6
						manuever = 3
						siege = 2
						trait = wyvern_rider_personality
						female = yes
						name = root_name_female
					}
				}
			}
		}
		
		if = {
			limit = {
				army_tradition = 20
				NOT = { army_tradition = 40 }
			}
			random_list = {
				50 = {
					define_conquistador = {
						fire = 3
						shock = 7
						manuever = 4
						siege = 3
						trait = wyvern_rider_personality
						name = root_name_male
					}
				}
				50 = {
					define_conquistador = {
						fire = 3
						shock = 7
						manuever = 4
						siege = 3
						trait = wyvern_rider_personality
						female = yes
						name = root_name_female
					}
				}
			}
		}
		
		if = {
			limit = {
				army_tradition = 40
				NOT = { army_tradition = 60 }
			}
			random_list = {
				50 = {
					define_conquistador = {
						fire = 4
						shock = 8
						manuever = 6
						siege = 4
						trait = wyvern_rider_personality
						name = root_name_male
					}
				}
				50 = {
					define_conquistador = {
						fire = 4
						shock = 8
						manuever = 6
						siege = 4
						trait = wyvern_rider_personality
						female = yes
						name = root_name_female
					}
				}
			}
		}
		
		if = {
			limit = {
				army_tradition = 60
				NOT = { army_tradition = 80 }
			}
			random_list = {
				50 = {
					define_conquistador = {
						fire = 5
						shock = 9
						manuever = 6
						siege = 5
						trait = wyvern_rider_personality
						name = root_name_male
					}
				}
				50 = {
					define_conquistador = {
						fire = 5
						shock = 9
						manuever = 6
						siege = 5
						trait = wyvern_rider_personality
						female = yes
						name = root_name_female
					}
				}
			}
		}
		
		if = {
			limit = {
				army_tradition = 80
				NOT = { army_tradition = 100 }
			}
			random_list = {
				50 = {
					define_conquistador = {
						fire = 6
						shock = 10
						manuever = 6
						siege = 6
						trait = wyvern_rider_personality
						name = root_name_male
					}
				}
				50 = {
					define_conquistador = {
						fire = 6
						shock = 10
						manuever = 6
						siege = 6
						trait = wyvern_rider_personality
						female = yes
						name = root_name_female
					}
				}
			}
		}
		
		clear_saved_name = root_name_male
		clear_saved_name = root_name_female
	}
	
	option = {
		name = verne.13.b
		ai_chance = { factor = 0 }
		random_list = {
			50 = {
				define_advisor = {
				type = army_reformer
				skill = 3
				cost_multiplier = 0.25
				culture = vernman	
				name = root_name_male
				}
			}
			50 = {
				define_advisor = {
				type = army_reformer
				skill = 3
				cost_multiplier = 0.25
				culture = vernman	
				name = root_name_female
				female = yes
				}
			}
		}
		clear_saved_name = root_name_male
		clear_saved_name = root_name_female
	}
}

country_event = {
	id = verne.14
	title = verne.14.t
	desc = verne.14.d
	picture = HARBOUR_eventPicture
	
	trigger = {
		is_year = 1523
		has_country_modifier = verne_grand_regatta
		NOT = { has_country_modifier = verne_stingport_regatta_held }
	}
	
	immediate = {
		add_country_modifier = {
				name = "verne_stingport_regatta_held"
				duration = 7300
			}
	}
	
	option = {
		name = verne.14.a
		ai_chance = { factor = 50 }
		add_prestige = 20
	}
	option = {
		name = verne.14.b
		ai_chance = { factor = 50 }
		add_treasury = -200
		create_admiral = { tradition = 40 }
	}
	option = {
		name = verne.14.c
		ai_chance = { factor = 0 }
		add_treasury = -200
		define_advisor = {
				type = naval_reformer
				skill = 3
				cost_multiplier = 0.25
				culture = vernman
		}
	}	
}
