namespace = magic_ruler

# Turning ruler into general
country_event = {
	id =  magic_ruler.0
	title =  magic_ruler.0.t
	desc =  magic_ruler.0.d
	picture = WAR_OF_THE_ROSES_eventPicture
	
	#fire_only_once = yes
	#is_triggered_only = yes
	
	hidden = yes
	
	trigger = {
		ruler_has_personality = mage_personality
		is_monarch_leader = no
		has_consort_regency = no
		has_regency = no
		NOT = { has_ruler_flag = mage_ruler_general }
	}
	
	immediate = {
		hidden_effect = {
			# randomize_leader_pips_magical_effect = {
				# which = rulerFIRE
			# }
			randomize_leader_pips_magical_effect = {
				which = rulermil
			}
			# randomize_leader_pips_nonmagical_effect = {
				# which = rulerSHOCK
			# }
			# randomize_leader_pips_nonmagical_effect = {
				# which = rulerMNVR
			# }
		}
		
		set_saved_name = {
			key = ruler_name
			
		}
		
		set_ruler_flag = mage_ruler_general
	}
	
	option = {
		name = "magic_ruler.0.a"
	
		# if = {
		#	limit = {
		#		is_female = yes
		#	}
		#	convert_female_ruler_to_general = yes
		# }
		if = {
			limit = {
				mil = 0
				NOT = { mil = 1 }
			}
			define_ruler_to_general = {
				fire = 1
				shock = 6
				manuever = 0
				siege = 3
				#
			}
			if = {
				limit = {
					is_female = yes
					NOT = { is_monarch_leader = yes }
				}
				convert_female_ruler_to_general = yes
			}
		}
		else_if = {
			limit = {
				mil = 1
				NOT = { mil = 2 }
			}
			define_ruler_to_general = {
				fire = 2
				shock = 7
				manuever = 0
				siege = 3
			}
			if = {
				limit = {
					is_female = yes
					NOT = { is_monarch_leader = yes }
				}
				convert_female_ruler_to_general = yes
			}
		}
		else_if = {
			limit = {
				mil = 2
				NOT = { mil = 3 }
			}
			define_ruler_to_general = {
				fire = 2
				shock = 7
				manuever = 1
				siege = 4
				#
			}
			if = {
				limit = {
					is_female = yes
					NOT = { is_monarch_leader = yes }
				}
				convert_female_ruler_to_general = yes
			}
		}
		else_if = {
			limit = {
				mil = 3
				NOT = { mil = 4 }
			}
			define_ruler_to_general = {
				fire = 2
				shock = 8
				manuever = 1
				siege = 5
			}
			if = {
				limit = {
					is_female = yes
					NOT = { is_monarch_leader = yes }
				}
				convert_female_ruler_to_general = yes
			}
		}
		else_if = {
			limit = {
				mil = 4
				NOT = { mil = 5 }
			}
			define_ruler_to_general = {
				fire = 3
				shock = 9
				manuever = 1
				siege = 6
				#
			}
			if = {
				limit = {
					is_female = yes
					NOT = { is_monarch_leader = yes }
				}
				convert_female_ruler_to_general = yes
			}
		}
		else_if = {
			limit = {
				mil = 5
				NOT = { mil = 6 }
			}
			define_ruler_to_general = {
				fire = 3
				shock = 10
				manuever = 2
				siege = 7
				#
			}
			if = {
				limit = {
					is_female = yes
					NOT = { is_monarch_leader = yes }
				}
				convert_female_ruler_to_general = yes
			}
		}
		else_if = {
			limit = {
				mil = 6
			}
			define_ruler_to_general = {
				fire = 4
				shock = 11
				manuever = 3
				siege = 8
			}
			if = {
				limit = {
					is_female = yes
					NOT = { is_monarch_leader = yes }
				}
				convert_female_ruler_to_general = yes
			}
		}
		else = {
			convert_ruler_to_general = yes
			convert_female_ruler_to_general = yes
		}
		# else_if = {
			# limit = {
				# check_variable = { which = rulermil value = 10 }
				# NOT = { check_variable = { which = rulermil value = 11 } }
			# }
			# define_ruler_to_general = {
				# fire = 3
				# shock = 11
				# manuever = 2
				# siege = 8
				# #
			# }
		# }
		# else = {
			# define_ruler_to_general = {
				# fire = 0
				# shock = 5
				# manuever = 0
				# siege = 3
				# #
			# }
		# }
	}
}

# On New Ruler - Initialization
country_event = {
	id =  magic_ruler.1
	title =  magic_ruler.1.t
	desc =  magic_ruler.1.d
	picture = WAR_OF_THE_ROSES_eventPicture
	
	#fire_only_once = yes
	is_triggered_only = yes
	
	hidden = yes
	
	trigger = {
		ruler_has_personality = mage_personality
		
		#If you dont have any level 1 spells then this will fire
		NOT = { has_ruler_flag = abjuration_1 }
		NOT = { has_ruler_flag = conjuration_1 }
		NOT = { has_ruler_flag = divination_1 }
		NOT = { has_ruler_flag = enchantment_1 }
		NOT = { has_ruler_flag = evocation_1 }
		NOT = { has_ruler_flag = illusion_1 }
		NOT = { has_ruler_flag = necromancy_1 }
		NOT = { has_ruler_flag = transmutation_1 }
	}
	
	immediate = {
		hidden_effect = {
			clear_witch_king_points = yes
		}
	}
	
	option = {
		name = magic_ruler.1.a
		
		magic_ruler_give_random_spell_school = yes
		
		if = {
			limit = {
				ruler_has_personality = scholar_personality
			}
			magic_ruler_give_random_spell_school = yes
		}
		
		if = {
			limit = {
				OR = {
					has_reform = magocracy_reform
					has_reform = magisterium_reform
				}
			}
			magic_ruler_give_random_spell_school = yes
		}
		
		if = {
			limit = {
				OR = {
					consort_culture = sun_elf
					consort_culture = moon_elf
					consort_culture = cliff_gnome
					consort_culture = creek_gnome
					consort_culture = imperial_gnome
				}
			}
			magic_ruler_give_random_spell_school = yes
		}
		
		if = {
			limit = {
				OR = {
					adm = 6
					dip = 6
					mil = 6
				}
			}
			magic_ruler_give_random_spell_school = yes
		}
		
		
		if = {
			limit = {
				adm = 3
			}
			magic_ruler_give_random_adm_school = yes
		}
		if = {
			limit = {
				dip = 3
			}
			magic_ruler_give_random_dip_school = yes
		}
		if = {
			limit = {
				mil = 3
			}
			magic_ruler_give_random_mil_school = yes
		}
		
		if = {
			limit = {
				ruler_age = 30
			}
			magic_ruler_give_random_spell_school = yes
		}
		
		if = {
			limit = {
				ruler_age = 40
			}
			magic_ruler_give_random_spell_school = yes
		}

		if = {
			limit = {
				ruler_age = 50
			}
			magic_ruler_give_random_spell_school = yes
		}
		
		if = {
			limit = {
				ruler_age = 60
			}
			magic_ruler_give_random_spell_school = yes
		}
		
	}
}

# Powerful Mage Heir
country_event = {
	id =  magic_ruler.2
	title =  magic_ruler.2.t
	desc =  magic_ruler.2.d
	picture = NEW_HEIR_eventPicture
	
	trigger = {
		ruler_has_personality = mage_personality
		has_heir = no
		government = monarchy
		is_lesser_in_union = no
		has_government_attribute = heir
		has_consort = yes
		
		NOT = { ruler_age = 60 }
	}
	
	mean_time_to_happen = {
		months = 1000
		modifier = {
			factor = 0.1
			has_global_flag = crimson_deluge
			is_year = 1560
			capital_scope = { superregion = escann_superregion }
		}
		modifier = {
			factor = 0.5
			has_reform = magical_elite_reform
		}
		modifier = {
			factor = 0.25
			OR = {
				ruler_has_personality = mage_personality
				consort_has_personality = mage_personality
			}
		}
	}

	option = {
		name = magic_ruler.2.a
		
		define_heir = {
			age = 0
			dynasty = ROOT
			hidden = yes
		}
		hidden_effect = { add_heir_personality = mage_personality }
	}
}

# Powerful Mage Bastard - child
country_event = {
	id =  magic_ruler.3
	title =  magic_ruler.3.t
	desc =  magic_ruler.3.d
	picture = NEW_HEIR_eventPicture
	
	trigger = {
		OR = {
			ruler_has_personality = mage_personality
			has_reform = magical_elite_reform
		}
		has_heir = yes
		has_government_attribute = heir
		government = monarchy
		is_lesser_in_union = no
		NOT = { heir_has_personality = mage_personality }
		
		NOT = { ruler_age = 60 }
		
		NOT = { ruler_has_personality = incorruptible_personality }
		NOT = { ruler_has_personality = kind_hearted_personality }
	}
	
	mean_time_to_happen = {
		months = 1000
		modifier = {
			factor = 0.5
			has_reform = magical_elite_reform
		}
		modifier = {
			factor = 0.25
			OR = {
				ruler_has_personality = mage_personality
			}
		}
		modifier = {
			factor = 0.75
			OR = {
				ruler_has_personality = indulgent_personality
				ruler_has_personality = naive_enthusiast_personality
				ruler_has_personality = silver_tongue_personality
			}
		}
	}

	option = {
		name = magic_ruler.3.a
		ai_chance = {
			factor = 75
		}
		
		remove_heir = yes
		
		add_legitimacy = -30
		
		define_heir = {
			age = 0
			dynasty = ROOT
			no_consort_with_heir = yes
			hidden = yes
		}
		hidden_effect = { add_heir_personality = mage_personality }
	}

	option = {
		name = magic_ruler.3.b
		ai_chance = {
			factor = 25
		}
		
		add_legitimacy = 10
	}
}

# Powerful Mage Pretender - disabled until I can figure out how to make the ruler you get a powerful mage
# country_event = {
	# id =  magic_ruler.4
	# title =  magic_ruler.4.t
	# desc =  magic_ruler.4.d
	# picture = CIVIL_WAR_eventPicture
	
	# trigger = {
		# has_reform = magical_elite_reform
		# government = monarchy
		# OR = {
			# overextension_percentage = 0.5
			# NOT = { stability = 1 }
		# }
		
		# NOT = { ruler_has_personality = mage_personality }
	# }
	
	# mean_time_to_happen = {
		# months = 1500
		# modifier = {
			# factor = 0.75
			# OR = {
				# NOT = { adm = 3 }
				# NOT = { dip = 3 }
				# NOT = { mil = 3 }
			# }
		# }
	# }

	# option = {
		# name = magic_ruler.4.a
		
		# random_owned_province = {
			# limit = {
				# is_core = ROOT 
				# is_capital = no
			# }
			# spawn_rebels = {
				# type = 	pretender_rebels
				# religion = ROOT
				# size = 2
				# win = yes
			# }
		# }
		# set_country_flag = mage_pretender_revolt
	# }
# }

# Evocation Death - Early Game
country_event = {
	id =  magic_ruler.5
	title =  magic_ruler.5.t
	desc =  magic_ruler.5.d
	picture = COMET_SIGHTED_eventPicture
	
	trigger = {
		ruler_has_personality = mage_personality
		
		OR = {
			has_ruler_modifier = magic_realm_evocation_war_magic_1
			has_ruler_modifier = magic_realm_evocation_war_magic_2
			has_ruler_modifier = magic_realm_evocation_war_magic_3
		}
		
		is_at_war = yes
		
		NOT = { current_age = age_of_discovery }
	}
	
	mean_time_to_happen = {
		months = 730

		modifier = {
			factor = 1.25
			war_score = 10
		}
		modifier = {
			factor = 0.08
			current_age = age_of_absolutism
		}
		modifier = {
			factor = 0.005
			current_age = age_of_revolutions
		}
	}

	option = {	#Die
		name = magic_ruler.5.a
		
		kill_ruler = yes
	}
	
	option = {	#Abjuration 1
		name = magic_ruler.5.b
		trigger = {
			is_abjuration_1 = yes
		}
		
		add_mil_power = -50
		
		random_list = {
			75 = {
			
			}
			25 = {
				kill_ruler = yes
			}
		}
		
		custom_tooltip = tooltip_option_abjuration_1
	}
	
	option = {	#Abjuration 2
		name = magic_ruler.5.c
		trigger = {
			is_abjuration_2 = yes
		}
		add_mil_power = -50
		
		random_list = {
			80 = {
			
			}
			20 = {
				kill_ruler = yes
			}
		}
		
		custom_tooltip = tooltip_option_abjuration_2
	}
	
	option = {	#Abjuration 3
		name = magic_ruler.5.dd
		trigger = {
			is_abjuration_3 = yes
		}
		add_mil_power = -50
		
		random_list = {
			90 = {
			
			}
			10 = {
				kill_ruler = yes
			}
		}
		
		custom_tooltip = tooltip_option_abjuration_3
	}
}

# Evocation Death - Black Damestear
country_event = {
	id =  magic_ruler.6
	title =  magic_ruler.6.t
	desc =  magic_ruler.6.d
	picture = COMET_SIGHTED_eventPicture
	
	trigger = {
		ruler_has_personality = mage_personality
		
		OR = {
			has_ruler_modifier = magic_realm_evocation_war_magic_1
			has_ruler_modifier = magic_realm_evocation_war_magic_2
			has_ruler_modifier = magic_realm_evocation_war_magic_3
		}
		
		is_at_war = yes
		
		current_age = age_of_revolutions
	}
	
	mean_time_to_happen = {
		months = 365

		modifier = {
			factor = 1.25
			war_score = 10
		}
		
	}

	option = {	#Die
		name = magic_ruler.6.a
		
		kill_ruler = yes
	}
	
	
	option = {	#Abjuration 3
		name = magic_ruler.6.b
		trigger = {
			is_abjuration_3 = yes
		}
		add_mil_power = -50
		
		random_list = {
			50 = {
			
			}
			50 = {
				kill_ruler = yes
			}
		}
		
		custom_tooltip = tooltip_option_abjuration_3
	}
}

# Young Heir turns to be a promising mage
country_event = {
	id =  magic_ruler.7
	title =  magic_ruler.7.t
	desc = {
		trigger = { NOT = { has_global_flag = crimson_deluge } }
		desc =  magic_ruler.7.d
	}
	desc = {
		trigger = { has_global_flag = crimson_deluge }
		desc =  magic_ruler.7.da
	}
	picture = COMET_eventPicture
	
	trigger = {
		has_heir = yes
		has_government_attribute = heir
		government = monarchy
		NOT = { heir_has_personality = mage_personality }
		
		NOT = { heir_age = 16 }
	}
	
	mean_time_to_happen = {
		months = 7300
		modifier = {
			factor = 0.01
			capital_scope = { superregion = escann_superregion }
			has_global_flag = crimson_deluge
			is_year = 1580
			NOT = { current_age = age_of_revolutions }
		}
		modifier = {
			factor = 0.2
			OR = {
				ruler_has_personality = mage_personality
				consort_has_personality = mage_personality
			}
		}
		modifier = {
			factor = 0.5
			has_reform = magical_elite_reform
		}
		modifier = {
			factor = 0.5
			current_age = age_of_absolutism
		}
	}

	option = {
		name = magic_ruler.7.a
		ai_chance = {
			factor = 90
			modifier = {
				factor = 100
				current_age = age_of_absolutism
			}
		}
		
		add_heir_personality = mage_personality
	}
	
	option = {
		name = magic_ruler.7.b
		ai_chance = {
			factor = 10
			modifier = {
				factor = 100
				has_country_flag = banned_magic
			}
			modifier = {
				factor = 5
				current_age = age_of_revolutions
			}
		}
		
		remove_heir = yes
	}

}

country_event = {
	id = magic_ruler.8
	title = magic_ruler.8.t
	desc =  magic_ruler.8.d
	picture = WAR_OF_THE_ROSES_eventPicture
	
	hidden = yes
	is_triggered_only = yes
	
	option = {
		name = magic_ruler.8.a
		country_event = {
			id = magic_ruler.1
			days = 45
		}
	}
}