
namespace = rahen

province_event = { #Event to make Rajnadhaga and dwarven adventurers friends
	id = rahen.1
	title = rahen.1.t
	desc = rahen.1.d
	picture = WESTERNISATION_eventPicture

	is_triggered_only = yes
	fire_only_once = yes
	
	trigger = {
		province_id = 4266
		owner = { culture_group = dwarven has_reform = adventurer_reform }
		4462 = {
			owner = {
				NOT = {
					tag = R62
					is_rival = ROOT
					is_subject = yes
				}
			}
		}
	}

	option = { #Reach out to Rajnadhaga to strike a deal
		name = rahen.1.a
		ai_chance = {
			factor = 1
		}
		4462 = {
			owner = {
				country_event = {
					id = rahen.2
					days = 1
				}
			}
		}
		add_treasury = -50
	}
	option = { #We don't need them
		name = rahen.1.b
		ai_chance = {
			factor = 0
		}
		add_prestige = 10
	}
}
province_event = { #Rajnadhaga's response
	id = rahen.2
	title = rahen.2.t
	desc = rahen.2.d
	picture = WESTERNISATION_eventPicture

	is_triggered_only = yes

	option = { #Reach out to Rajnadhaga to strike a deal
		name = rahen.2.a
		ai_chance = {
			factor = 1
		}
		add_treasury = 50
		create_alliance = FROM
		add_historical_friend = FROM
	}
	option = { #Take their gifts but refuse the deal
		name = rahen.2.b
		ai_chance = {
			factor = 0
		}
		add_treasury = 50
		FROM = { add_casus_belli = { target = ROOT type = cb_insult months = 12 } }
	}
}

country_event = { #tiger consort
	id = rahen.3
	title = rahen.3.t
	picture = GOOD_WITH_MONARCH_eventPicture
	
	desc = rahen.3.d
	
	trigger = {
		has_dlc = "Rights of Man"
		has_consort = no
		has_regency = no
		is_lesser_in_union = no
		government = monarchy
		has_government_attribute = queen
		NOT = { has_reform = iqta }
		NOT = { has_reform = elective_monarchy }
		NOT = { has_reform = ottoman_government }
		NOT = { has_reform = mamluk_government }
		OR = {
			ruler_culture = royal_harimari
			ruler_culture = east_harimari
		}
		OR = {
			personality = infertile_personality
			personality = babbling_buffoon_personality
		}
	}
	
	immediate = {
		hidden_effect = {
		random_list = {
			25 = {
				define_consort = {
					name = Grarr
					dynasty = Hgrarhhhg
					culture = actual_tiger
					adm = 1
					dip = 1
					mil = 1
				}
				add_queen_personality = cruel_personality
				add_queen_personality = infertile_personality
			}
			25 = {
				define_consort = {
					name = Glitterclaw
					dynasty = "the Tiger Queen"
					culture = actual_tiger
					adm = 1
					dip = 1
					mil = 1
				}
				add_queen_personality = inspiring_leader_personality
				add_queen_personality = infertile_personality
			}
			25 = {
				define_consort = {
					name = Mittens
					dynasty = "the Grand Paw"
					culture = actual_tiger
					adm = 1
					dip = 1
					mil = 1
				}
				add_queen_personality = craven_personality
				add_queen_personality = infertile_personality
			}
		}
		}
	}
	
	mean_time_to_happen = {
		months = 120
	}

	option = {
		name = rahen.3.a
		add_prestige = -20
		remove_consort = yes
	}
	
	option = {
		name = rahen.3.b
		add_prestige = -10
		add_legitimacy = -20
	}
}