namespace = ynn_barges

# Your ruler die
country_event = {
	id = ynn_barges.1
	title = ynn_barges.1.t
	desc = ynn_barges.1.d
	picture = KING_SICK_IN_BED_eventPicture
	
	is_triggered_only = yes
	
	trigger = {
		religion = ynn_river_worship
		capital_scope = { superregion = ynn_superregion }
		NOT = {
			OR = {
				has_country_flag = big_barges
				has_country_flag = normal_barges
				has_country_flag = little_barges
			}
		}
	}
	
	# Big barge
	option = {
        name = ynn_barges.1.a
        ai_chance = { factor = 20 }
		add_years_of_income = -0.95
		add_prestige = 10
		add_stability = 1
		hidden_effect = { set_country_flag = big_barges }
		hidden_effect = { ynnic_barge_effect = yes }
	}
	# Normal barge
	option = {
        name = ynn_barges.1.b
        ai_chance = { factor = 35 }
		add_years_of_income = -0.5
		add_prestige = 5
		random = {
			chance = 30
			add_stability = 1
		}
		hidden_effect = { set_country_flag = normal_barges }
		hidden_effect = { ynnic_barge_effect = yes }
	}
	# Little barge
	option = {
        name = ynn_barges.1.c
        ai_chance = { factor = 40 }
		add_years_of_income = -0.2
		hidden_effect = { set_country_flag = little_barges }
		hidden_effect = { ynnic_barge_effect = yes }
	}
	# No barge
	option = {
        name = ynn_barges.1.e
        ai_chance = { factor = 5 }
		add_prestige = -10
		random = {
			chance = 50
			add_stability = -1
		}
	}
}

# Dam Checkpoint
country_event = {
	id = ynn_barges.2
	title = ynn_barges.2.t
	desc = ynn_barges.2.d
	picture = KING_SICK_IN_BED_eventPicture
	
	is_triggered_only = yes
	
	trigger = {
		always = yes
	}
	
	# Let them go through
	option = {
        name = ynn_barges.2.a
		trigger = { NOT = { ROOT = { tag = FROM } } }
        ai_chance = { 
			factor = 100
			
			modifier = {
				factor = 2
				has_opinion = {
					who = FROM
					value = 50
				}
			}
			modifier = {
				factor = 2
				has_opinion = {
					who = FROM
					value = 100
				}
			}
			modifier = {
				factor = 2
				has_opinion = {
					who = FROM
					value = 150
				}
			}
			modifier = {
				factor = 2
				religion = ynn_river_worship
			}
		}
		add_prestige = 2
		add_trust = {
			who = FROM
			value = 5
			mutual = yes
		}
		hidden_effect = { FROM = { country_event = { id = ynn_barges.100 days = 10 random = 5 } } }
	}
	
	# Ask for toll money
	option = {
        name = ynn_barges.2.b
		trigger = { NOT = { ROOT = { tag = FROM } } }
        ai_chance = { 
			factor = 50
			
			modifier = {
				factor = 2
				NOT = {
					has_opinion = {
						who = FROM
						value = 50
					}
				}
			}
			
			modifier = {
				factor = 2
				NOT = {
					has_opinion = {
						who = FROM
						value = 0
					}
				}
			}
			
			modifier = {
				factor = 2
				NOT = {
					has_opinion = {
						who = FROM
						value = -50
					}
				}
			}
			modifier = {
				factor = 5
				NOT = { religion = ynn_river_worship }
				NOT = { tag = H51 } #Freemarches
			}
			modifier = {
				factor = 5
				is_rival = FROM
			}
		}
		add_trust = {
			who = FROM
			value = -2
			mutual = yes
		}
		FROM = { country_event = { id = ynn_barges.3 days = 10 random = 5 } }
	}
	
	# Do not let them pass
	option = {
        name = ynn_barges.2.c
		trigger = { NOT = { ROOT = { tag = FROM } } }
        ai_chance = { 
			factor = 10
			
			modifier = {
				factor = 100
				owner = { personality = malevolent_personality }
			}
			
			modifier = {
				factor = 5
				owner = { is_rival = FROM }
			}
		}
		
		FROM = {  country_event = { id = ynn_barges.7 days = 10 random = 5 } }
		add_trust = {
			who = FROM
			value = -7
			mutual = yes
		}
	}
	#We own the dam
	option = {
        name = ynn_barges.2.e
        ai_chance = { factor = 100 }
		trigger = { ROOT = { tag = FROM } }
		add_adm_power = 10
		add_mil_power = 10
		add_dip_power = 10
		hidden_effect = { FROM = { country_event = { id = ynn_barges.100 days = 10 random = 5 } } }
	}
}

#They ask us to pay toll
country_event = {
	id = ynn_barges.3
	title = ynn_barges.3.t
	desc = ynn_barges.3.d
	picture = KING_SICK_IN_BED_eventPicture
	
	is_triggered_only = yes
	
	trigger = {
		always = yes
	}
	
	#Pay them
	option = {
        name = ynn_barges.3.a
        ai_chance = { factor = 80 }
		add_treasury = -50
		hidden_effect = { FROM = { country_event = { id = ynn_barges.4 days = 10 random = 5 } } }
	}
	# How dare they
	option = {
        name = ynn_barges.3.b
        ai_chance = { factor = 20  modifier = { factor = 20 NOT = { treasury = 50 } } }
		add_prestige = -5
		hidden_effect = { FROM = { country_event = { id = ynn_barges.5 days = 10 random = 5 } } }
	}
}

#They paid us
country_event = {
	id = ynn_barges.4
	title = ynn_barges.4.t
	desc = ynn_barges.4.d
	picture = KING_SICK_IN_BED_eventPicture
	
	is_triggered_only = yes
	
	trigger = {
		always = yes
	}
	
	#Let them go through
	option = {
        name = ynn_barges.4.a
        ai_chance = { factor = 20 }
		add_prestige = 5
		add_treasury = 50
		hidden_effect = { FROM = { country_event = { id = ynn_barges.100 days = 10 random = 5 } } }
	}
}

#They don't pay us
country_event = {
	id = ynn_barges.5
	title = ynn_barges.5.t
	desc = ynn_barges.5.d
	picture = KING_SICK_IN_BED_eventPicture
	
	is_triggered_only = yes
	
	trigger = {
		always = yes
	}
	
	#Too bad, block the barge
	option = {
        name = ynn_barges.5.a
        ai_chance = { factor = 20 }
		add_prestige = -5
		hidden_effect = { FROM = { country_event = { id = ynn_barges.6 days = 10 random = 5 } } }
	}
}

#Our barge didn't made it
country_event = {
	id = ynn_barges.6
	title = ynn_barges.6.t
	desc = ynn_barges.6.d
	picture = KING_SICK_IN_BED_eventPicture
	
	is_triggered_only = yes
	
	trigger = {
		always = yes
	}
	
	#Fuck
	option = {
        name = ynn_barges.6.a
        ai_chance = { factor = 20 }
		add_prestige = -10
		add_legitimacy = -10
		random = {
			chance = 60
			add_stability = -1
		}
		hidden_effect = { ynn_barge_clear_flag = yes }
	}
}

#They stopped our barge
country_event = {
	id = ynn_barges.7
	title = ynn_barges.7.t
	desc = ynn_barges.7.d
	picture = KING_SICK_IN_BED_eventPicture
	
	is_triggered_only = yes
	
	trigger = {
		always = yes
	}
	
	#Those bastard
	option = {
        name = ynn_barges.7.a
        ai_chance = { factor = 20 }
		owner = {
			add_trust = {
				who = FROM
				value = -7
				mutual = yes
			}
		}
		country_event = { id = ynn_barges.6 }
	}
}

#Another king is dead
country_event = {
	id = ynn_barges.8
	title = ynn_barges.8.t
	desc = ynn_barges.8.d
	picture = KING_SICK_IN_BED_eventPicture
	
	is_triggered_only = yes
	
	trigger = {
		always = yes
	}
	
	
	#Let it go through
	option = {
        name = ynn_barges.8.a
        ai_chance = { factor = 10 }
	}
	#Make a little ritual
	option = {
        name = ynn_barges.8.b
        ai_chance = { factor = 10 }
		add_years_of_income = -0.1
		add_prestige = 5
	}
	#A big ceremony
	option = {
        name = ynn_barges.8.c
        ai_chance = { factor = 10 }
		add_years_of_income = -0.5
		add_adm_power = 20
		add_dip_power = 20
	}
}

#Our monarch is now with it's ancestor
country_event = {
	id = ynn_barges.9
	title = ynn_barges.9.t
	desc = ynn_barges.9.d
	picture = KING_SICK_IN_BED_eventPicture
	
	is_triggered_only = yes
	
	trigger = {
		always = yes
	}
	
	immediate = {
		hidden_effect = { ynn_reward_setup = yes }
	}
	
	#That's cool
	option = {
        name = ynn_barges.9.a
        ai_chance = { factor = 10 }
		ynn_reward = yes
		hidden_effect = { ynn_barge_clear_flag = yes }
	}
}

#####################
# Background Event
#####################
country_event = {
	id = ynn_barges.100
	title = ynn_barges.100.t
	desc = ynn_barges.100.d
	picture = KING_SICK_IN_BED_eventPicture
	
	is_triggered_only = yes
	hidden = yes
	
	trigger = {
		always = yes
	}
	
	immediate = {
		if = {
			limit = { has_country_flag = ynn_dam_one }
			clr_country_flag = ynn_dam_one
			set_country_flag = ynn_dam_three
		}
		else_if = {
			limit = { has_country_flag = ynn_dam_two }
			clr_country_flag = ynn_dam_two
			set_country_flag = ynn_dam_three
		}
		else_if = {
			limit = { has_country_flag = ynn_dam_three }
			clr_country_flag = ynn_dam_three
			set_country_flag = ynn_dam_four
		}
		else_if = {
			limit = { has_country_flag = ynn_dam_four }
			clr_country_flag = ynn_dam_four
		}
	}
	
	option = {
        name = ynn_barges.100.a
        ai_chance = { factor = 100 }
		ynnic_barge_advance = yes
	}
}
